\BOOKMARK [1][-]{section.1}{Typography}{}% 1
\BOOKMARK [2][-]{subsection.1.1}{Body text}{section.1}% 2
\BOOKMARK [2][-]{subsection.1.2}{Title \046 subtitle}{section.1}% 3
\BOOKMARK [2][-]{subsection.1.3}{Abstract}{section.1}% 4
\BOOKMARK [2][-]{subsection.1.4}{Headings}{section.1}% 5
\BOOKMARK [3][-]{subsubsection.1.4.1}{Heading 1}{subsection.1.4}% 6
\BOOKMARK [3][-]{subsubsection.1.4.2}{Headings 2\2054}{subsection.1.4}% 7
\BOOKMARK [2][-]{subsection.1.5}{Page layout}{section.1}% 8
\BOOKMARK [1][-]{section.2}{Presentational elements}{}% 9
\BOOKMARK [2][-]{subsection.2.1}{Figures}{section.2}% 10
\BOOKMARK [2][-]{subsection.2.2}{Tables}{section.2}% 11
\BOOKMARK [2][-]{subsection.2.3}{Additional elements}{section.2}% 12
\BOOKMARK [3][-]{subsubsection.2.3.1}{Quotes}{subsection.2.3}% 13
\BOOKMARK [3][-]{subsubsection.2.3.2}{Lists}{subsection.2.3}% 14
\BOOKMARK [1][-]{section.3}{Procedural elements}{}% 15
\BOOKMARK [2][-]{subsection.3.1}{In-line citations}{section.3}% 16
\BOOKMARK [2][-]{subsection.3.2}{Reference lists}{section.3}% 17
\BOOKMARK [1][-]{section.4}{References}{}% 18
\BOOKMARK [1][-]{section.5}{Appendices}{}% 19
