\relax 
\providecommand\hyper@newdestlabel[2]{}
\providecommand\HyperFirstAtBeginDocument{\AtBeginDocument}
\HyperFirstAtBeginDocument{\ifx\hyper@anchor\@undefined
\global\let\oldcontentsline\contentsline
\gdef\contentsline#1#2#3#4{\oldcontentsline{#1}{#2}{#3}}
\global\let\oldnewlabel\newlabel
\gdef\newlabel#1#2{\newlabelxx{#1}#2}
\gdef\newlabelxx#1#2#3#4#5#6{\oldnewlabel{#1}{{#2}{#3}}}
\AtEndDocument{\ifx\hyper@anchor\@undefined
\let\contentsline\oldcontentsline
\let\newlabel\oldnewlabel
\fi}
\fi}
\global\let\hyper@last\relax 
\gdef\HyperFirstAtBeginDocument#1{#1}
\providecommand\HyField@AuxAddToFields[1]{}
\providecommand\HyField@AuxAddToCoFields[2]{}
\abx@aux@refcontext{nyt/global//global/global}
\@writefile{toc}{\boolfalse {citerequest}\boolfalse {citetracker}\boolfalse {pagetracker}\boolfalse {backtracker}\relax }
\@writefile{lof}{\boolfalse {citerequest}\boolfalse {citetracker}\boolfalse {pagetracker}\boolfalse {backtracker}\relax }
\@writefile{lot}{\boolfalse {citerequest}\boolfalse {citetracker}\boolfalse {pagetracker}\boolfalse {backtracker}\relax }
\babel@aux{english}{}
\newlabel{bhfn:1}{{1}{1}{}{BackrefHyperFootnoteCounter.1}{}}
\@writefile{toc}{\defcounter {refsection}{0}\relax }\@writefile{toc}{\contentsline {section}{\numberline {1}Typography}{1}{section.1}\protected@file@percent }
\@writefile{toc}{\defcounter {refsection}{0}\relax }\@writefile{toc}{\contentsline {subsection}{\numberline {1.1}Body text}{1}{subsection.1.1}\protected@file@percent }
\@writefile{toc}{\defcounter {refsection}{0}\relax }\@writefile{toc}{\contentsline {subsection}{\numberline {1.2}Title \& subtitle}{2}{subsection.1.2}\protected@file@percent }
\@writefile{toc}{\defcounter {refsection}{0}\relax }\@writefile{toc}{\contentsline {subsection}{\numberline {1.3}Abstract}{2}{subsection.1.3}\protected@file@percent }
\@writefile{toc}{\defcounter {refsection}{0}\relax }\@writefile{toc}{\contentsline {subsection}{\numberline {1.4}Headings}{2}{subsection.1.4}\protected@file@percent }
\@writefile{toc}{\defcounter {refsection}{0}\relax }\@writefile{toc}{\contentsline {subsubsection}{\numberline {1.4.1}Heading 1}{2}{subsubsection.1.4.1}\protected@file@percent }
\@writefile{toc}{\defcounter {refsection}{0}\relax }\@writefile{toc}{\contentsline {subsubsection}{\numberline {1.4.2}Headings 2\kern 0.167em\IeC {\textendash }\kern 0.167em4}{2}{subsubsection.1.4.2}\protected@file@percent }
\@writefile{toc}{\defcounter {refsection}{0}\relax }\@writefile{toc}{\contentsline {subsection}{\numberline {1.5}Page layout}{3}{subsection.1.5}\protected@file@percent }
\@writefile{toc}{\defcounter {refsection}{0}\relax }\@writefile{toc}{\contentsline {section}{\numberline {2}Presentational elements}{3}{section.2}\protected@file@percent }
\@writefile{toc}{\defcounter {refsection}{0}\relax }\@writefile{toc}{\contentsline {subsection}{\numberline {2.1}Figures}{3}{subsection.2.1}\protected@file@percent }
\@writefile{lof}{\defcounter {refsection}{0}\relax }\@writefile{lof}{\contentsline {figure}{\numberline {1}{\ignorespaces Make sure your flowcharts are more useful than this one. Source: \href  {https://xkcd.com/1195/}{XKCD}.\relax }}{4}{figure.caption.1}\protected@file@percent }
\providecommand*\caption@xref[2]{\@setref\relax\@undefined{#1}}
\newlabel{fig:flowchart}{{1}{4}{Make sure your flowcharts are more useful than this one. Source: \href {https://xkcd.com/1195/}{XKCD}.\relax }{figure.caption.1}{}}
\@writefile{toc}{\defcounter {refsection}{0}\relax }\@writefile{toc}{\contentsline {subsection}{\numberline {2.2}Tables}{4}{subsection.2.2}\protected@file@percent }
\@writefile{toc}{\defcounter {refsection}{0}\relax }\@writefile{toc}{\contentsline {subsection}{\numberline {2.3}Additional elements}{4}{subsection.2.3}\protected@file@percent }
\@writefile{toc}{\defcounter {refsection}{0}\relax }\@writefile{toc}{\contentsline {subsubsection}{\numberline {2.3.1}Quotes}{4}{subsubsection.2.3.1}\protected@file@percent }
\abx@aux@cite{joyner2017}
\abx@aux@segm{0}{0}{joyner2017}
\abx@aux@segm{0}{0}{joyner2017}
\abx@aux@cite{newman2018}
\abx@aux@segm{0}{0}{newman2018}
\abx@aux@segm{0}{0}{newman2018}
\abx@aux@cite{joyner2018a}
\abx@aux@segm{0}{0}{joyner2018a}
\abx@aux@segm{0}{0}{joyner2018a}
\abx@aux@cite{joyner2018b}
\abx@aux@segm{0}{0}{joyner2018b}
\abx@aux@segm{0}{0}{joyner2018b}
\abx@aux@cite{joyner2016}
\abx@aux@segm{0}{0}{joyner2016}
\abx@aux@segm{0}{0}{joyner2016}
\abx@aux@segm{0}{0}{joyner2016}
\abx@aux@segm{0}{0}{joyner2016}
\@writefile{lot}{\defcounter {refsection}{0}\relax }\@writefile{lot}{\contentsline {table}{\numberline {1}{\ignorespaces Mathematical constants. Notice how the approximations align at the decimal.\relax }}{5}{table.caption.2}\protected@file@percent }
\@writefile{toc}{\defcounter {refsection}{0}\relax }\@writefile{toc}{\contentsline {subsubsection}{\numberline {2.3.2}Lists}{5}{subsubsection.2.3.2}\protected@file@percent }
\@writefile{toc}{\defcounter {refsection}{0}\relax }\@writefile{toc}{\contentsline {section}{\numberline {3}Procedural elements}{6}{section.3}\protected@file@percent }
\@writefile{toc}{\defcounter {refsection}{0}\relax }\@writefile{toc}{\contentsline {subsection}{\numberline {3.1}In-line citations}{6}{subsection.3.1}\protected@file@percent }
\newlabel{bhfn:2}{{2}{6}{In-line citations}{BackrefHyperFootnoteCounter.2}{}}
\@writefile{toc}{\defcounter {refsection}{0}\relax }\@writefile{toc}{\contentsline {subsection}{\numberline {3.2}Reference lists}{6}{subsection.3.2}\protected@file@percent }
\abx@aux@refcontextdefaultsdone
\abx@aux@defaultrefcontext{0}{joyner2017}{nyt/global//global/global}
\abx@aux@defaultrefcontext{0}{joyner2018a}{nyt/global//global/global}
\abx@aux@defaultrefcontext{0}{joyner2018b}{nyt/global//global/global}
\abx@aux@defaultrefcontext{0}{joyner2016}{nyt/global//global/global}
\abx@aux@defaultrefcontext{0}{newman2018}{nyt/global//global/global}
\@writefile{toc}{\defcounter {refsection}{0}\relax }\@writefile{toc}{\contentsline {section}{\numberline {4}References}{7}{section.4}\protected@file@percent }
\abx@aux@page{13}{7}
\abx@aux@page{14}{7}
\abx@aux@page{15}{7}
\abx@aux@page{16}{7}
\abx@aux@page{17}{7}
\@writefile{toc}{\defcounter {refsection}{0}\relax }\@writefile{toc}{\contentsline {section}{\numberline {5}Appendices}{7}{section.5}\protected@file@percent }
