\relax 
\providecommand\hyper@newdestlabel[2]{}
\providecommand\HyperFirstAtBeginDocument{\AtBeginDocument}
\HyperFirstAtBeginDocument{\ifx\hyper@anchor\@undefined
\global\let\oldcontentsline\contentsline
\gdef\contentsline#1#2#3#4{\oldcontentsline{#1}{#2}{#3}}
\global\let\oldnewlabel\newlabel
\gdef\newlabel#1#2{\newlabelxx{#1}#2}
\gdef\newlabelxx#1#2#3#4#5#6{\oldnewlabel{#1}{{#2}{#3}}}
\AtEndDocument{\ifx\hyper@anchor\@undefined
\let\contentsline\oldcontentsline
\let\newlabel\oldnewlabel
\fi}
\fi}
\global\let\hyper@last\relax 
\gdef\HyperFirstAtBeginDocument#1{#1}
\providecommand\HyField@AuxAddToFields[1]{}
\providecommand\HyField@AuxAddToCoFields[2]{}
\abx@aux@refcontext{nyt/global//global/global}
\abx@aux@cite{ooa-tutor}
\abx@aux@segm{0}{0}{ooa-tutor}
\abx@aux@segm{0}{0}{ooa-tutor}
\abx@aux@cite{ibm-auto-comp}
\abx@aux@segm{0}{0}{ibm-auto-comp}
\abx@aux@segm{0}{0}{ibm-auto-comp}
\abx@aux@segm{0}{0}{ibm-auto-comp}
\abx@aux@segm{0}{0}{ibm-auto-comp}
\abx@aux@cite{represent-learning}
\abx@aux@segm{0}{0}{represent-learning}
\abx@aux@segm{0}{0}{represent-learning}
\abx@aux@cite{transfer-survey}
\abx@aux@segm{0}{0}{transfer-survey}
\abx@aux@segm{0}{0}{transfer-survey}
\abx@aux@cite{transfer-int}
\abx@aux@segm{0}{0}{transfer-int}
\abx@aux@segm{0}{0}{transfer-int}
\@writefile{toc}{\boolfalse {citerequest}\boolfalse {citetracker}\boolfalse {pagetracker}\boolfalse {backtracker}\relax }
\@writefile{lof}{\boolfalse {citerequest}\boolfalse {citetracker}\boolfalse {pagetracker}\boolfalse {backtracker}\relax }
\@writefile{lot}{\boolfalse {citerequest}\boolfalse {citetracker}\boolfalse {pagetracker}\boolfalse {backtracker}\relax }
\babel@aux{english}{}
\@writefile{toc}{\defcounter {refsection}{0}\relax }\@writefile{toc}{\contentsline {section}{\numberline {1}Research Log}{1}{section.1}\protected@file@percent }
\@writefile{toc}{\defcounter {refsection}{0}\relax }\@writefile{toc}{\contentsline {subsection}{\numberline {1.1}Background}{1}{subsection.1.1}\protected@file@percent }
\@writefile{lof}{\defcounter {refsection}{0}\relax }\@writefile{lof}{\contentsline {figure}{\numberline {1}{\ignorespaces MAPE-K Feedback Loop.\relax }}{2}{figure.caption.1}\protected@file@percent }
\providecommand*\caption@xref[2]{\@setref\relax\@undefined{#1}}
\newlabel{fig:mape-k}{{1}{2}{MAPE-K Feedback Loop.\relax }{figure.caption.1}{}}
\@writefile{toc}{\defcounter {refsection}{0}\relax }\@writefile{toc}{\contentsline {subsection}{\numberline {1.2}Papers}{2}{subsection.1.2}\protected@file@percent }
\@writefile{toc}{\defcounter {refsection}{0}\relax }\@writefile{toc}{\contentsline {subsection}{\numberline {1.3}Synthesis}{5}{subsection.1.3}\protected@file@percent }
\abx@aux@cite{soar}
\abx@aux@segm{0}{0}{soar}
\abx@aux@segm{0}{0}{soar}
\@writefile{toc}{\defcounter {refsection}{0}\relax }\@writefile{toc}{\contentsline {subsection}{\numberline {1.4}Reflection}{6}{subsection.1.4}\protected@file@percent }
\@writefile{toc}{\defcounter {refsection}{0}\relax }\@writefile{toc}{\contentsline {subsection}{\numberline {1.5}Planning}{6}{subsection.1.5}\protected@file@percent }
\@writefile{toc}{\defcounter {refsection}{0}\relax }\@writefile{toc}{\contentsline {section}{\numberline {2}Activity}{6}{section.2}\protected@file@percent }
\@writefile{toc}{\defcounter {refsection}{0}\relax }\@writefile{toc}{\contentsline {subsection}{\numberline {2.1}Problem Statement}{6}{subsection.2.1}\protected@file@percent }
\@writefile{toc}{\defcounter {refsection}{0}\relax }\@writefile{toc}{\contentsline {subsubsection}{\numberline {2.1.1}Background}{6}{subsubsection.2.1.1}\protected@file@percent }
\abx@aux@segm{0}{0}{soar}
\abx@aux@segm{0}{0}{soar}
\@writefile{lof}{\defcounter {refsection}{0}\relax }\@writefile{lof}{\contentsline {figure}{\numberline {2}{\ignorespaces (a) Example production rules; and (b) The SOAR Architecture as explained by J. Laird~(\citeauthor {soar}, \citeyear {soar})\relax }}{7}{figure.caption.2}\protected@file@percent }
\newlabel{fig:rules-soar}{{2}{7}{(a) Example production rules; and (b) The SOAR Architecture as explained by J. Laird~(\cite {soar})\relax }{figure.caption.2}{}}
\@writefile{toc}{\defcounter {refsection}{0}\relax }\@writefile{toc}{\contentsline {subsubsection}{\numberline {2.1.2}Working Memory - Frames}{7}{subsubsection.2.1.2}\protected@file@percent }
\@writefile{toc}{\defcounter {refsection}{0}\relax }\@writefile{toc}{\contentsline {subsubsection}{\numberline {2.1.3}Long Term Memory - Procedural, Semantic, Episodic}{7}{subsubsection.2.1.3}\protected@file@percent }
\abx@aux@segm{0}{0}{ooa-tutor}
\abx@aux@segm{0}{0}{ooa-tutor}
\abx@aux@cite{plan-tutor}
\abx@aux@segm{0}{0}{plan-tutor}
\abx@aux@segm{0}{0}{plan-tutor}
\@writefile{toc}{\defcounter {refsection}{0}\relax }\@writefile{toc}{\contentsline {subsubsection}{\numberline {2.1.4}Problem - The Lack of Dynamic \& Adaptable Data in Intelligent Tutoring Systems }{8}{subsubsection.2.1.4}\protected@file@percent }
\@writefile{toc}{\defcounter {refsection}{0}\relax }\@writefile{toc}{\contentsline {subsubsection}{\numberline {2.1.5}Closing Thoughts:}{8}{subsubsection.2.1.5}\protected@file@percent }
\@writefile{toc}{\defcounter {refsection}{0}\relax }\@writefile{toc}{\contentsline {subsection}{\numberline {2.2}Research Questions}{8}{subsection.2.2}\protected@file@percent }
\abx@aux@refcontextdefaultsdone
\abx@aux@defaultrefcontext{0}{plan-tutor}{nyt/global//global/global}
\abx@aux@defaultrefcontext{0}{ooa-tutor}{nyt/global//global/global}
\abx@aux@defaultrefcontext{0}{transfer-int}{nyt/global//global/global}
\abx@aux@defaultrefcontext{0}{soar}{nyt/global//global/global}
\abx@aux@defaultrefcontext{0}{ibm-auto-comp}{nyt/global//global/global}
\abx@aux@defaultrefcontext{0}{transfer-survey}{nyt/global//global/global}
\abx@aux@defaultrefcontext{0}{represent-learning}{nyt/global//global/global}
\@writefile{toc}{\defcounter {refsection}{0}\relax }\@writefile{toc}{\contentsline {section}{\numberline {3}References}{9}{section.3}\protected@file@percent }
\abx@aux@page{21}{9}
\abx@aux@page{22}{9}
\abx@aux@page{23}{9}
\abx@aux@page{24}{9}
\abx@aux@page{25}{9}
\abx@aux@page{26}{9}
\abx@aux@page{27}{9}
