\relax 
\providecommand\hyper@newdestlabel[2]{}
\providecommand\HyperFirstAtBeginDocument{\AtBeginDocument}
\HyperFirstAtBeginDocument{\ifx\hyper@anchor\@undefined
\global\let\oldcontentsline\contentsline
\gdef\contentsline#1#2#3#4{\oldcontentsline{#1}{#2}{#3}}
\global\let\oldnewlabel\newlabel
\gdef\newlabel#1#2{\newlabelxx{#1}#2}
\gdef\newlabelxx#1#2#3#4#5#6{\oldnewlabel{#1}{{#2}{#3}}}
\AtEndDocument{\ifx\hyper@anchor\@undefined
\let\contentsline\oldcontentsline
\let\newlabel\oldnewlabel
\fi}
\fi}
\global\let\hyper@last\relax 
\gdef\HyperFirstAtBeginDocument#1{#1}
\providecommand\HyField@AuxAddToFields[1]{}
\providecommand\HyField@AuxAddToCoFields[2]{}
\abx@aux@refcontext{nyt/global//global/global}
\abx@aux@cite{support-case-base}
\abx@aux@segm{0}{0}{support-case-base}
\abx@aux@segm{0}{0}{support-case-base}
\abx@aux@cite{ooa-tutor}
\abx@aux@segm{0}{0}{ooa-tutor}
\abx@aux@segm{0}{0}{ooa-tutor}
\abx@aux@cite{its-survey}
\abx@aux@segm{0}{0}{its-survey}
\abx@aux@segm{0}{0}{its-survey}
\abx@aux@segm{0}{0}{ooa-tutor}
\abx@aux@segm{0}{0}{ooa-tutor}
\abx@aux@segm{0}{0}{its-survey}
\abx@aux@segm{0}{0}{its-survey}
\abx@aux@segm{0}{0}{ooa-tutor}
\abx@aux@segm{0}{0}{ooa-tutor}
\abx@aux@cite{plan-tutor}
\abx@aux@segm{0}{0}{plan-tutor}
\abx@aux@segm{0}{0}{plan-tutor}
\abx@aux@segm{0}{0}{its-survey}
\abx@aux@segm{0}{0}{its-survey}
\@writefile{toc}{\boolfalse {citerequest}\boolfalse {citetracker}\boolfalse {pagetracker}\boolfalse {backtracker}\relax }
\@writefile{lof}{\boolfalse {citerequest}\boolfalse {citetracker}\boolfalse {pagetracker}\boolfalse {backtracker}\relax }
\@writefile{lot}{\boolfalse {citerequest}\boolfalse {citetracker}\boolfalse {pagetracker}\boolfalse {backtracker}\relax }
\babel@aux{english}{}
\@writefile{toc}{\defcounter {refsection}{0}\relax }\@writefile{toc}{\contentsline {section}{\numberline {1}Introduction}{1}{section.1}\protected@file@percent }
\abx@aux@cite{id-its}
\abx@aux@segm{0}{0}{id-its}
\abx@aux@segm{0}{0}{id-its}
\@writefile{lof}{\defcounter {refsection}{0}\relax }\@writefile{lof}{\contentsline {figure}{\numberline {1}{\ignorespaces Intelligent Tutoring System Architecture\relax }}{2}{figure.caption.1}\protected@file@percent }
\providecommand*\caption@xref[2]{\@setref\relax\@undefined{#1}}
\newlabel{fig:its-arch}{{1}{2}{Intelligent Tutoring System Architecture\relax }{figure.caption.1}{}}
\@writefile{lof}{\defcounter {refsection}{0}\relax }\@writefile{lof}{\contentsline {figure}{\numberline {2}{\ignorespaces Intelligent Tutoring Systems with Meta-Models\relax }}{2}{figure.caption.2}\protected@file@percent }
\newlabel{fig:its-model}{{2}{2}{Intelligent Tutoring Systems with Meta-Models\relax }{figure.caption.2}{}}
\abx@aux@cite{soar}
\abx@aux@segm{0}{0}{soar}
\abx@aux@segm{0}{0}{soar}
\abx@aux@segm{0}{0}{soar}
\abx@aux@segm{0}{0}{soar}
\@writefile{toc}{\defcounter {refsection}{0}\relax }\@writefile{toc}{\contentsline {section}{\numberline {2}Background}{3}{section.2}\protected@file@percent }
\@writefile{lof}{\defcounter {refsection}{0}\relax }\@writefile{lof}{\contentsline {figure}{\numberline {3}{\ignorespaces (a) Example production rules; and (b) The SOAR Architecture as explained by J. Laird~(\citeauthor {soar}, \citeyear {soar})\relax }}{3}{figure.caption.3}\protected@file@percent }
\newlabel{fig:rules-soar}{{3}{3}{(a) Example production rules; and (b) The SOAR Architecture as explained by J. Laird~(\cite {soar})\relax }{figure.caption.3}{}}
\abx@aux@segm{0}{0}{ooa-tutor}
\abx@aux@segm{0}{0}{ooa-tutor}
\abx@aux@cite{ibm-auto-comp}
\abx@aux@segm{0}{0}{ibm-auto-comp}
\abx@aux@segm{0}{0}{ibm-auto-comp}
\abx@aux@segm{0}{0}{ibm-auto-comp}
\abx@aux@segm{0}{0}{ibm-auto-comp}
\@writefile{toc}{\defcounter {refsection}{0}\relax }\@writefile{toc}{\contentsline {subsubsection}{\numberline {2.0.1}Working Memory - Frames}{4}{subsubsection.2.0.1}\protected@file@percent }
\@writefile{toc}{\defcounter {refsection}{0}\relax }\@writefile{toc}{\contentsline {subsubsection}{\numberline {2.0.2}Long Term Memory - Procedural, Semantic, Episodic}{4}{subsubsection.2.0.2}\protected@file@percent }
\abx@aux@cite{represent-learning}
\abx@aux@segm{0}{0}{represent-learning}
\abx@aux@segm{0}{0}{represent-learning}
\abx@aux@cite{transfer-survey}
\abx@aux@segm{0}{0}{transfer-survey}
\abx@aux@segm{0}{0}{transfer-survey}
\abx@aux@cite{transfer-int}
\abx@aux@segm{0}{0}{transfer-int}
\abx@aux@segm{0}{0}{transfer-int}
\abx@aux@cite{physics-ml}
\abx@aux@segm{0}{0}{physics-ml}
\abx@aux@segm{0}{0}{physics-ml}
\abx@aux@cite{meta-learn}
\abx@aux@segm{0}{0}{meta-learn}
\abx@aux@segm{0}{0}{meta-learn}
\abx@aux@cite{metacog}
\abx@aux@segm{0}{0}{metacog}
\abx@aux@segm{0}{0}{metacog}
\@writefile{lof}{\defcounter {refsection}{0}\relax }\@writefile{lof}{\contentsline {figure}{\numberline {4}{\ignorespaces MAPE-K Feedback Loop.\relax }}{5}{figure.caption.4}\protected@file@percent }
\newlabel{fig:mape-k}{{4}{5}{MAPE-K Feedback Loop.\relax }{figure.caption.4}{}}
\abx@aux@cite{generic-obj-rec}
\abx@aux@segm{0}{0}{generic-obj-rec}
\abx@aux@segm{0}{0}{generic-obj-rec}
\abx@aux@cite{gp-ml-framework}
\abx@aux@segm{0}{0}{gp-ml-framework}
\abx@aux@segm{0}{0}{gp-ml-framework}
\abx@aux@cite{meta-opt}
\abx@aux@segm{0}{0}{meta-opt}
\abx@aux@segm{0}{0}{meta-opt}
\abx@aux@cite{generic-tree-ensemble}
\abx@aux@segm{0}{0}{generic-tree-ensemble}
\abx@aux@segm{0}{0}{generic-tree-ensemble}
\abx@aux@cite{comp-generic-ml}
\abx@aux@segm{0}{0}{comp-generic-ml}
\abx@aux@segm{0}{0}{comp-generic-ml}
\abx@aux@cite{gml}
\abx@aux@segm{0}{0}{gml}
\abx@aux@segm{0}{0}{gml}
\abx@aux@cite{ensemble-methods}
\abx@aux@segm{0}{0}{ensemble-methods}
\abx@aux@segm{0}{0}{ensemble-methods}
\abx@aux@cite{boosting}
\abx@aux@segm{0}{0}{boosting}
\abx@aux@segm{0}{0}{boosting}
\abx@aux@cite{exp-boost}
\abx@aux@segm{0}{0}{exp-boost}
\abx@aux@segm{0}{0}{exp-boost}
\abx@aux@cite{bagging-predict}
\abx@aux@segm{0}{0}{bagging-predict}
\abx@aux@segm{0}{0}{bagging-predict}
\abx@aux@cite{stackd-gen}
\abx@aux@segm{0}{0}{stackd-gen}
\abx@aux@segm{0}{0}{stackd-gen}
\abx@aux@segm{0}{0}{ensemble-methods}
\abx@aux@segm{0}{0}{ensemble-methods}
\abx@aux@cite{ensemble-learn}
\abx@aux@segm{0}{0}{ensemble-learn}
\abx@aux@segm{0}{0}{ensemble-learn}
\abx@aux@segm{0}{0}{ensemble-methods}
\abx@aux@segm{0}{0}{ensemble-methods}
\abx@aux@cite{ensemble-net-sec}
\abx@aux@segm{0}{0}{ensemble-net-sec}
\abx@aux@segm{0}{0}{ensemble-net-sec}
\abx@aux@segm{0}{0}{ensemble-learn}
\abx@aux@segm{0}{0}{ensemble-learn}
\abx@aux@segm{0}{0}{stackd-gen}
\abx@aux@segm{0}{0}{stackd-gen}
\abx@aux@segm{0}{0}{id-its}
\abx@aux@segm{0}{0}{id-its}
\@writefile{toc}{\defcounter {refsection}{0}\relax }\@writefile{toc}{\contentsline {section}{\numberline {3}Project Discussion}{7}{section.3}\protected@file@percent }
\newlabel{auto-encoder}{{1}{8}{Auto-Encoder}{lstlisting.1}{}}
\@writefile{lol}{\defcounter {refsection}{0}\relax }\@writefile{lol}{\contentsline {lstlisting}{\numberline {1}Auto-Encoder}{8}{lstlisting.1}\protected@file@percent }
\abx@aux@cite{auto-ids}
\abx@aux@segm{0}{0}{auto-ids}
\abx@aux@segm{0}{0}{auto-ids}
\abx@aux@cite{unsw-nb15}
\abx@aux@segm{0}{0}{unsw-nb15}
\abx@aux@segm{0}{0}{unsw-nb15}
\abx@aux@cite{github-repo}
\abx@aux@segm{0}{0}{github-repo}
\abx@aux@segm{0}{0}{github-repo}
\abx@aux@segm{0}{0}{auto-ids}
\abx@aux@segm{0}{0}{auto-ids}
\abx@aux@segm{0}{0}{unsw-nb15}
\abx@aux@segm{0}{0}{unsw-nb15}
\abx@aux@cite{unsw-data}
\abx@aux@segm{0}{0}{unsw-data}
\abx@aux@segm{0}{0}{unsw-data}
\@writefile{lof}{\defcounter {refsection}{0}\relax }\@writefile{lof}{\contentsline {figure}{\numberline {5}{\ignorespaces Comparison of the accuracy of two models, respectively with and without previous knowledge, representing System B\relax }}{10}{figure.caption.6}\protected@file@percent }
\newlabel{loss}{{5}{10}{Comparison of the accuracy of two models, respectively with and without previous knowledge, representing System B\relax }{figure.caption.6}{}}
\@writefile{toc}{\defcounter {refsection}{0}\relax }\@writefile{toc}{\contentsline {subsection}{\numberline {3.1}Meta-Model Results}{10}{subsection.3.1}\protected@file@percent }
\newlabel{comparison}{{\caption@xref {comparison}{ on input line 186}}{11}{Meta-Model Results}{figure.caption.7}{}}
\@writefile{lof}{\defcounter {refsection}{0}\relax }\@writefile{lof}{\contentsline {figure}{\numberline {6}{\ignorespaces Comparison between Auto-encoder vs. Classifier\relax }}{11}{figure.caption.7}\protected@file@percent }
\@writefile{toc}{\defcounter {refsection}{0}\relax }\@writefile{toc}{\contentsline {section}{\numberline {4}Conclusion}{11}{section.4}\protected@file@percent }
\@writefile{toc}{\defcounter {refsection}{0}\relax }\@writefile{toc}{\contentsline {section}{\numberline {5}References}{11}{section.5}\protected@file@percent }
\abx@aux@page{89}{11}
\abx@aux@page{90}{11}
\abx@aux@page{91}{12}
\abx@aux@page{92}{12}
\abx@aux@page{93}{12}
\abx@aux@page{94}{12}
\abx@aux@page{95}{12}
\abx@aux@page{96}{12}
\abx@aux@page{97}{12}
\abx@aux@page{98}{12}
\abx@aux@page{99}{12}
\abx@aux@page{100}{12}
\abx@aux@page{101}{12}
\abx@aux@page{102}{12}
\abx@aux@page{103}{12}
\abx@aux@page{104}{13}
\abx@aux@page{105}{13}
\abx@aux@page{106}{13}
\abx@aux@page{107}{13}
\abx@aux@page{108}{13}
\abx@aux@page{109}{13}
\abx@aux@page{110}{13}
\abx@aux@page{111}{13}
\abx@aux@page{112}{13}
\abx@aux@page{113}{13}
\abx@aux@page{114}{13}
\abx@aux@page{115}{13}
\abx@aux@refcontextdefaultsdone
\abx@aux@defaultrefcontext{0}{its-survey}{nyt/global//global/global}
\abx@aux@defaultrefcontext{0}{bagging-predict}{nyt/global//global/global}
\abx@aux@defaultrefcontext{0}{meta-learn}{nyt/global//global/global}
\abx@aux@defaultrefcontext{0}{plan-tutor}{nyt/global//global/global}
\abx@aux@defaultrefcontext{0}{ensemble-methods}{nyt/global//global/global}
\abx@aux@defaultrefcontext{0}{ensemble-learn}{nyt/global//global/global}
\abx@aux@defaultrefcontext{0}{auto-ids}{nyt/global//global/global}
\abx@aux@defaultrefcontext{0}{support-case-base}{nyt/global//global/global}
\abx@aux@defaultrefcontext{0}{ooa-tutor}{nyt/global//global/global}
\abx@aux@defaultrefcontext{0}{transfer-int}{nyt/global//global/global}
\abx@aux@defaultrefcontext{0}{ensemble-net-sec}{nyt/global//global/global}
\abx@aux@defaultrefcontext{0}{generic-obj-rec}{nyt/global//global/global}
\abx@aux@defaultrefcontext{0}{soar}{nyt/global//global/global}
\abx@aux@defaultrefcontext{0}{gp-ml-framework}{nyt/global//global/global}
\abx@aux@defaultrefcontext{0}{meta-opt}{nyt/global//global/global}
\abx@aux@defaultrefcontext{0}{ibm-auto-comp}{nyt/global//global/global}
\abx@aux@defaultrefcontext{0}{id-its}{nyt/global//global/global}
\abx@aux@defaultrefcontext{0}{unsw-nb15}{nyt/global//global/global}
\abx@aux@defaultrefcontext{0}{unsw-data}{nyt/global//global/global}
\abx@aux@defaultrefcontext{0}{gml}{nyt/global//global/global}
\abx@aux@defaultrefcontext{0}{github-repo}{nyt/global//global/global}
\abx@aux@defaultrefcontext{0}{metacog}{nyt/global//global/global}
\abx@aux@defaultrefcontext{0}{comp-generic-ml}{nyt/global//global/global}
\abx@aux@defaultrefcontext{0}{generic-tree-ensemble}{nyt/global//global/global}
\abx@aux@defaultrefcontext{0}{boosting}{nyt/global//global/global}
\abx@aux@defaultrefcontext{0}{transfer-survey}{nyt/global//global/global}
\abx@aux@defaultrefcontext{0}{stackd-gen}{nyt/global//global/global}
\abx@aux@defaultrefcontext{0}{physics-ml}{nyt/global//global/global}
\abx@aux@defaultrefcontext{0}{exp-boost}{nyt/global//global/global}
\abx@aux@defaultrefcontext{0}{represent-learning}{nyt/global//global/global}
\abx@aux@page{116}{14}
\abx@aux@page{117}{14}
\abx@aux@page{118}{14}
