[0] Config.pm:304> INFO - This is Biber 2.12
[0] Config.pm:307> INFO - Logfile is '/Users/patrickday/Documents/CS6460/Proposal/.texpadtmp/ProjectProposal_PatrickDay.blg'
[48] biber-darwin:315> INFO - === Mon Oct  5, 2020, 06:30:23
[76] Biber.pm:371> INFO - Reading '/Users/patrickday/Documents/CS6460/Proposal/.texpadtmp/ProjectProposal_PatrickDay.bcf'
[198] Biber.pm:889> INFO - Found 20 citekeys in bib section 0
[232] Biber.pm:4093> INFO - Processing section 0
[247] Biber.pm:4254> INFO - Looking for bibtex format file '/Users/patrickday/Documents/CS6460/Proposal/references.bib' for section 0
[251] bibtex.pm:1523> INFO - LaTeX decoding ...
[328] bibtex.pm:1340> INFO - Found BibTeX data source '/Users/patrickday/Documents/CS6460/Proposal/references.bib'
[813] UCollate.pm:68> INFO - Overriding locale 'en-US' defaults 'normalization = NFD' with 'normalization = prenormalized'
[813] UCollate.pm:68> INFO - Overriding locale 'en-US' defaults 'variable = shifted' with 'variable = non-ignorable'
[813] Biber.pm:3921> INFO - Sorting list 'nyt/global//global/global' of type 'entry' with template 'nyt' and locale 'en-US'
[813] Biber.pm:3927> INFO - No sort tailoring available for locale 'en-US'
[841] bbl.pm:636> INFO - Writing '/Users/patrickday/Documents/CS6460/Proposal/.texpadtmp/ProjectProposal_PatrickDay.bbl' with encoding 'UTF-8'
[850] bbl.pm:739> INFO - Output to /Users/patrickday/Documents/CS6460/Proposal/.texpadtmp/ProjectProposal_PatrickDay.bbl
