\BOOKMARK [1][-]{section.1}{Introduction}{}% 1
\BOOKMARK [2][-]{subsection.1.1}{The Problem}{section.1}% 2
\BOOKMARK [3][-]{subsubsection.1.1.1}{Working Memory - Frames}{subsection.1.1}% 3
\BOOKMARK [3][-]{subsubsection.1.1.2}{Long Term Memory - Procedural, Semantic, Episodic}{subsection.1.1}% 4
\BOOKMARK [1][-]{section.2}{Related Work}{}% 5
\BOOKMARK [1][-]{section.3}{Proposed Work}{}% 6
\BOOKMARK [1][-]{section.4}{References}{}% 7
