\relax 
\providecommand\hyper@newdestlabel[2]{}
\providecommand\HyperFirstAtBeginDocument{\AtBeginDocument}
\HyperFirstAtBeginDocument{\ifx\hyper@anchor\@undefined
\global\let\oldcontentsline\contentsline
\gdef\contentsline#1#2#3#4{\oldcontentsline{#1}{#2}{#3}}
\global\let\oldnewlabel\newlabel
\gdef\newlabel#1#2{\newlabelxx{#1}#2}
\gdef\newlabelxx#1#2#3#4#5#6{\oldnewlabel{#1}{{#2}{#3}}}
\AtEndDocument{\ifx\hyper@anchor\@undefined
\let\contentsline\oldcontentsline
\let\newlabel\oldnewlabel
\fi}
\fi}
\global\let\hyper@last\relax 
\gdef\HyperFirstAtBeginDocument#1{#1}
\providecommand\HyField@AuxAddToFields[1]{}
\providecommand\HyField@AuxAddToCoFields[2]{}
\abx@aux@refcontext{nyt/global//global/global}
\abx@aux@cite{support-case-base}
\abx@aux@segm{0}{0}{support-case-base}
\abx@aux@segm{0}{0}{support-case-base}
\abx@aux@cite{ooa-tutor}
\abx@aux@segm{0}{0}{ooa-tutor}
\abx@aux@segm{0}{0}{ooa-tutor}
\abx@aux@cite{its-survey}
\abx@aux@segm{0}{0}{its-survey}
\abx@aux@segm{0}{0}{its-survey}
\abx@aux@segm{0}{0}{ooa-tutor}
\abx@aux@segm{0}{0}{ooa-tutor}
\abx@aux@segm{0}{0}{its-survey}
\abx@aux@segm{0}{0}{its-survey}
\abx@aux@segm{0}{0}{ooa-tutor}
\abx@aux@segm{0}{0}{ooa-tutor}
\abx@aux@cite{plan-tutor}
\abx@aux@segm{0}{0}{plan-tutor}
\abx@aux@segm{0}{0}{plan-tutor}
\abx@aux@segm{0}{0}{its-survey}
\abx@aux@segm{0}{0}{its-survey}
\@writefile{toc}{\boolfalse {citerequest}\boolfalse {citetracker}\boolfalse {pagetracker}\boolfalse {backtracker}\relax }
\@writefile{lof}{\boolfalse {citerequest}\boolfalse {citetracker}\boolfalse {pagetracker}\boolfalse {backtracker}\relax }
\@writefile{lot}{\boolfalse {citerequest}\boolfalse {citetracker}\boolfalse {pagetracker}\boolfalse {backtracker}\relax }
\babel@aux{english}{}
\@writefile{toc}{\defcounter {refsection}{0}\relax }\@writefile{toc}{\contentsline {section}{\numberline {1}Introduction}{1}{section.1}\protected@file@percent }
\@writefile{toc}{\defcounter {refsection}{0}\relax }\@writefile{toc}{\contentsline {subsection}{\numberline {1.1}The Problem}{1}{subsection.1.1}\protected@file@percent }
\abx@aux@cite{soar}
\abx@aux@segm{0}{0}{soar}
\abx@aux@segm{0}{0}{soar}
\abx@aux@segm{0}{0}{soar}
\abx@aux@segm{0}{0}{soar}
\@writefile{lof}{\defcounter {refsection}{0}\relax }\@writefile{lof}{\contentsline {figure}{\numberline {1}{\ignorespaces Intelligent Tutoring System Architecture\relax }}{2}{figure.caption.1}\protected@file@percent }
\providecommand*\caption@xref[2]{\@setref\relax\@undefined{#1}}
\newlabel{fig:its-arch}{{1}{2}{Intelligent Tutoring System Architecture\relax }{figure.caption.1}{}}
\@writefile{lof}{\defcounter {refsection}{0}\relax }\@writefile{lof}{\contentsline {figure}{\numberline {2}{\ignorespaces (a) Example production rules; and (b) The SOAR Architecture as explained by J. Laird~(\citeauthor {soar}, \citeyear {soar})\relax }}{3}{figure.caption.2}\protected@file@percent }
\newlabel{fig:rules-soar}{{2}{3}{(a) Example production rules; and (b) The SOAR Architecture as explained by J. Laird~(\cite {soar})\relax }{figure.caption.2}{}}
\@writefile{toc}{\defcounter {refsection}{0}\relax }\@writefile{toc}{\contentsline {subsubsection}{\numberline {1.1.1}Working Memory - Frames}{3}{subsubsection.1.1.1}\protected@file@percent }
\@writefile{toc}{\defcounter {refsection}{0}\relax }\@writefile{toc}{\contentsline {subsubsection}{\numberline {1.1.2}Long Term Memory - Procedural, Semantic, Episodic}{3}{subsubsection.1.1.2}\protected@file@percent }
\abx@aux@segm{0}{0}{ooa-tutor}
\abx@aux@segm{0}{0}{ooa-tutor}
\abx@aux@cite{ibm-auto-comp}
\abx@aux@segm{0}{0}{ibm-auto-comp}
\abx@aux@segm{0}{0}{ibm-auto-comp}
\abx@aux@segm{0}{0}{ibm-auto-comp}
\abx@aux@segm{0}{0}{ibm-auto-comp}
\@writefile{toc}{\defcounter {refsection}{0}\relax }\@writefile{toc}{\contentsline {section}{\numberline {2}Related Work}{4}{section.2}\protected@file@percent }
\abx@aux@cite{represent-learning}
\abx@aux@segm{0}{0}{represent-learning}
\abx@aux@segm{0}{0}{represent-learning}
\abx@aux@cite{transfer-survey}
\abx@aux@segm{0}{0}{transfer-survey}
\abx@aux@segm{0}{0}{transfer-survey}
\abx@aux@cite{transfer-int}
\abx@aux@segm{0}{0}{transfer-int}
\abx@aux@segm{0}{0}{transfer-int}
\abx@aux@cite{physics-ml}
\abx@aux@segm{0}{0}{physics-ml}
\abx@aux@segm{0}{0}{physics-ml}
\abx@aux@cite{meta-learn}
\abx@aux@segm{0}{0}{meta-learn}
\abx@aux@segm{0}{0}{meta-learn}
\abx@aux@cite{metacog}
\abx@aux@segm{0}{0}{metacog}
\abx@aux@segm{0}{0}{metacog}
\@writefile{lof}{\defcounter {refsection}{0}\relax }\@writefile{lof}{\contentsline {figure}{\numberline {3}{\ignorespaces MAPE-K Feedback Loop.\relax }}{5}{figure.caption.3}\protected@file@percent }
\newlabel{fig:mape-k}{{3}{5}{MAPE-K Feedback Loop.\relax }{figure.caption.3}{}}
\abx@aux@cite{generic-obj-rec}
\abx@aux@segm{0}{0}{generic-obj-rec}
\abx@aux@cite{gp-ml-framework}
\abx@aux@segm{0}{0}{gp-ml-framework}
\abx@aux@cite{meta-opt}
\abx@aux@segm{0}{0}{meta-opt}
\abx@aux@segm{0}{0}{generic-obj-rec}
\abx@aux@segm{0}{0}{gp-ml-framework}
\abx@aux@segm{0}{0}{meta-opt}
\abx@aux@cite{generic-tree-ensemble}
\abx@aux@segm{0}{0}{generic-tree-ensemble}
\abx@aux@cite{comp-generic-ml}
\abx@aux@segm{0}{0}{comp-generic-ml}
\abx@aux@cite{gml}
\abx@aux@segm{0}{0}{gml}
\abx@aux@segm{0}{0}{generic-tree-ensemble}
\abx@aux@segm{0}{0}{comp-generic-ml}
\abx@aux@segm{0}{0}{gml}
\abx@aux@cite{ensemble-methods}
\abx@aux@segm{0}{0}{ensemble-methods}
\abx@aux@segm{0}{0}{ensemble-methods}
\abx@aux@cite{id-its}
\abx@aux@segm{0}{0}{id-its}
\abx@aux@segm{0}{0}{id-its}
\@writefile{lof}{\defcounter {refsection}{0}\relax }\@writefile{lof}{\contentsline {figure}{\numberline {4}{\ignorespaces Intelligent Tutoring Systems with Meta-Models\relax }}{6}{figure.caption.4}\protected@file@percent }
\newlabel{fig:its-model}{{4}{6}{Intelligent Tutoring Systems with Meta-Models\relax }{figure.caption.4}{}}
\abx@aux@segm{0}{0}{id-its}
\abx@aux@segm{0}{0}{id-its}
\@writefile{toc}{\defcounter {refsection}{0}\relax }\@writefile{toc}{\contentsline {section}{\numberline {3}Project Update}{7}{section.3}\protected@file@percent }
\@writefile{toc}{\defcounter {refsection}{0}\relax }\@writefile{toc}{\contentsline {section}{\numberline {4}References}{8}{section.4}\protected@file@percent }
\abx@aux@page{57}{8}
\abx@aux@page{58}{8}
\abx@aux@page{59}{8}
\abx@aux@page{60}{8}
\abx@aux@page{61}{8}
\abx@aux@page{62}{8}
\abx@aux@page{63}{8}
\abx@aux@page{64}{8}
\abx@aux@page{65}{8}
\abx@aux@page{66}{8}
\abx@aux@page{67}{8}
\abx@aux@page{68}{8}
\abx@aux@page{69}{8}
\abx@aux@refcontextdefaultsdone
\abx@aux@defaultrefcontext{0}{its-survey}{nyt/global//global/global}
\abx@aux@defaultrefcontext{0}{meta-learn}{nyt/global//global/global}
\abx@aux@defaultrefcontext{0}{plan-tutor}{nyt/global//global/global}
\abx@aux@defaultrefcontext{0}{ensemble-methods}{nyt/global//global/global}
\abx@aux@defaultrefcontext{0}{support-case-base}{nyt/global//global/global}
\abx@aux@defaultrefcontext{0}{ooa-tutor}{nyt/global//global/global}
\abx@aux@defaultrefcontext{0}{transfer-int}{nyt/global//global/global}
\abx@aux@defaultrefcontext{0}{generic-obj-rec}{nyt/global//global/global}
\abx@aux@defaultrefcontext{0}{soar}{nyt/global//global/global}
\abx@aux@defaultrefcontext{0}{gp-ml-framework}{nyt/global//global/global}
\abx@aux@defaultrefcontext{0}{meta-opt}{nyt/global//global/global}
\abx@aux@defaultrefcontext{0}{ibm-auto-comp}{nyt/global//global/global}
\abx@aux@defaultrefcontext{0}{id-its}{nyt/global//global/global}
\abx@aux@defaultrefcontext{0}{gml}{nyt/global//global/global}
\abx@aux@defaultrefcontext{0}{metacog}{nyt/global//global/global}
\abx@aux@defaultrefcontext{0}{comp-generic-ml}{nyt/global//global/global}
\abx@aux@defaultrefcontext{0}{generic-tree-ensemble}{nyt/global//global/global}
\abx@aux@defaultrefcontext{0}{transfer-survey}{nyt/global//global/global}
\abx@aux@defaultrefcontext{0}{physics-ml}{nyt/global//global/global}
\abx@aux@defaultrefcontext{0}{represent-learning}{nyt/global//global/global}
\abx@aux@page{70}{9}
\abx@aux@page{71}{9}
\abx@aux@page{72}{9}
\abx@aux@page{73}{9}
\abx@aux@page{74}{9}
\abx@aux@page{75}{9}
\abx@aux@page{76}{9}
