% $ biblatex auxiliary file $
% $ biblatex bbl format version 3.0 $
% Do not modify the above lines!
%
% This is an auxiliary file used by the 'biblatex' package.
% This file may safely be deleted. It will be recreated by
% biber as required.
%
\begingroup
\makeatletter
\@ifundefined{ver@biblatex.sty}
  {\@latex@error
     {Missing 'biblatex' package}
     {The bibliography requires the 'biblatex' package.}
      \aftergroup\endinput}
  {}
\endgroup


\refsection{0}
  \datalist[entry]{nyt/global//global/global}
    \entry{its-survey}{article}{}
      \name{author}{1}{}{%
        {{hash=f804f20beff64e3f27e40133bacced37}{%
           family={Abdelbaset\bibnamedelima Almasri},
           familyi={A\bibinitperiod\bibinitdelim A\bibinitperiod},
           given={Naser\bibnamedelima Al-Masri},
           giveni={N\bibinitperiod\bibinitdelim A\bibinithyphendelim M\bibinitperiod},
           suffix={Adel\bibnamedelima Ahmed},
           suffixi={A\bibinitperiod\bibinitdelim A\bibinitperiod}}}%
      }
      \strng{namehash}{f804f20beff64e3f27e40133bacced37}
      \strng{fullhash}{f804f20beff64e3f27e40133bacced37}
      \strng{bibnamehash}{f804f20beff64e3f27e40133bacced37}
      \strng{authorbibnamehash}{f804f20beff64e3f27e40133bacced37}
      \strng{authornamehash}{f804f20beff64e3f27e40133bacced37}
      \strng{authorfullhash}{f804f20beff64e3f27e40133bacced37}
      \field{sortinit}{A}
      \field{sortinithash}{d77c7cdd82ff690d4c3ef13216f92f0b}
      \field{extradatescope}{labelyear}
      \field{labeldatesource}{year}
      \field{labelnamesource}{author}
      \field{labeltitlesource}{title}
      \field{journaltitle}{International Journal of Academic Engineering Research}
      \field{title}{Intelligent Tutoring Systems Survey for the Period 2000- 2018}
      \field{year}{2019}
    \endentry
    \entry{meta-learn}{article}{}
      \name{author}{1}{}{%
        {{hash=80535b3e5bf813363dd6b5e327b22b62}{%
           family={Chelsea\bibnamedelima Finn},
           familyi={C\bibinitperiod\bibinitdelim F\bibinitperiod},
           given={Sergey\bibnamedelima Levine},
           giveni={S\bibinitperiod\bibinitdelim L\bibinitperiod},
           suffix={Pieter\bibnamedelima Abbeel},
           suffixi={P\bibinitperiod\bibinitdelim A\bibinitperiod}}}%
      }
      \strng{namehash}{80535b3e5bf813363dd6b5e327b22b62}
      \strng{fullhash}{80535b3e5bf813363dd6b5e327b22b62}
      \strng{bibnamehash}{80535b3e5bf813363dd6b5e327b22b62}
      \strng{authorbibnamehash}{80535b3e5bf813363dd6b5e327b22b62}
      \strng{authornamehash}{80535b3e5bf813363dd6b5e327b22b62}
      \strng{authorfullhash}{80535b3e5bf813363dd6b5e327b22b62}
      \field{sortinit}{C}
      \field{sortinithash}{963e9d84a3da2344e8833203de5aed05}
      \field{extradatescope}{labelyear}
      \field{labeldatesource}{year}
      \field{labelnamesource}{author}
      \field{labeltitlesource}{title}
      \field{journaltitle}{International Conference on Machine Learning}
      \field{title}{Model-Agnostic Meta-Learning for Fast Adaptation of Deep Networks}
      \field{year}{2017}
    \endentry
    \entry{plan-tutor}{article}{}
      \name{author}{1}{}{%
        {{hash=56296de361f195e1f2599797b7574577}{%
           family={Darwyn\bibnamedelimb R.\bibnamedelimi Peachy},
           familyi={D\bibinitperiod\bibinitdelim R\bibinitperiod\bibinitdelim P\bibinitperiod},
           given={Gordon\bibnamedelimb I.\bibnamedelimi McCalla},
           giveni={G\bibinitperiod\bibinitdelim I\bibinitperiod\bibinitdelim M\bibinitperiod}}}%
      }
      \strng{namehash}{56296de361f195e1f2599797b7574577}
      \strng{fullhash}{56296de361f195e1f2599797b7574577}
      \strng{bibnamehash}{56296de361f195e1f2599797b7574577}
      \strng{authorbibnamehash}{56296de361f195e1f2599797b7574577}
      \strng{authornamehash}{56296de361f195e1f2599797b7574577}
      \strng{authorfullhash}{56296de361f195e1f2599797b7574577}
      \field{sortinit}{D}
      \field{sortinithash}{2ef1bd9a78cc71eb74d7231c635177b8}
      \field{extradatescope}{labelyear}
      \field{labeldatesource}{year}
      \field{labelnamesource}{author}
      \field{labeltitlesource}{title}
      \field{journaltitle}{International Journal of Man-Machine Studies}
      \field{title}{Using Planning Techniques in Intelligent Tutoring Systems}
      \field{year}{1986}
    \endentry
    \entry{ensemble-methods}{article}{}
      \name{author}{1}{}{%
        {{hash=f9a517f99d8450b78124ea4348265e82}{%
           family={Dietterich},
           familyi={D\bibinitperiod},
           given={Thomas\bibnamedelima G},
           giveni={T\bibinitperiod\bibinitdelim G\bibinitperiod}}}%
      }
      \strng{namehash}{f9a517f99d8450b78124ea4348265e82}
      \strng{fullhash}{f9a517f99d8450b78124ea4348265e82}
      \strng{bibnamehash}{f9a517f99d8450b78124ea4348265e82}
      \strng{authorbibnamehash}{f9a517f99d8450b78124ea4348265e82}
      \strng{authornamehash}{f9a517f99d8450b78124ea4348265e82}
      \strng{authorfullhash}{f9a517f99d8450b78124ea4348265e82}
      \field{sortinit}{D}
      \field{sortinithash}{2ef1bd9a78cc71eb74d7231c635177b8}
      \field{extradatescope}{labelyear}
      \field{labeldatesource}{year}
      \field{labelnamesource}{author}
      \field{labeltitlesource}{title}
      \field{abstract}{Ensemble methods are learning algorithms that construct a set of classifiers and then classify new data points by taking a (weighted) vote of their predictions. The original ensemble method is Bayesian averaging, but more recent algorithms include error-correcting output coding, Bagging, and boosting. This paper reviews these methods and explains why ensembles can often perform better than any single classifier. Some previous studies comparing ensemble methods are reviewed, and some new experiments are presented to uncover the reasons that Adaboost does not overfit rapidly.}
      \field{journaltitle}{International workshop on multiple classifier systems}
      \field{month}{6}
      \field{title}{Ensemble methods in machine learning}
      \field{year}{2000}
    \endentry
    \entry{support-case-base}{article}{}
      \name{author}{1}{}{%
        {{hash=f0e538dec681c156e69d7cd452123ca5}{%
           family={Hussein\bibnamedelimb H\bibnamedelima Owaied},
           familyi={H\bibinitperiod\bibinitdelim H\bibinitperiod\bibinitdelim O\bibinitperiod},
           given={Monzer\bibnamedelimb Mohd\bibnamedelima Qasem},
           giveni={M\bibinitperiod\bibinitdelim M\bibinitperiod\bibinitdelim Q\bibinitperiod},
           suffix={Mahmoud\bibnamedelimb Malek\bibnamedelima Abu-Ara},
           suffixi={M\bibinitperiod\bibinitdelim M\bibinitperiod\bibinitdelim A\bibinithyphendelim A\bibinitperiod}}}%
      }
      \strng{namehash}{f0e538dec681c156e69d7cd452123ca5}
      \strng{fullhash}{f0e538dec681c156e69d7cd452123ca5}
      \strng{bibnamehash}{f0e538dec681c156e69d7cd452123ca5}
      \strng{authorbibnamehash}{f0e538dec681c156e69d7cd452123ca5}
      \strng{authornamehash}{f0e538dec681c156e69d7cd452123ca5}
      \strng{authorfullhash}{f0e538dec681c156e69d7cd452123ca5}
      \field{sortinit}{H}
      \field{sortinithash}{5f15a7bc777ad49ff15aa4d2831b1681}
      \field{extradatescope}{labelyear}
      \field{labeldatesource}{year}
      \field{labelnamesource}{author}
      \field{labeltitlesource}{title}
      \field{journaltitle}{Journal of Applied Sciences}
      \field{number}{14}
      \field{title}{Using rules to support case-based reasoning for harmonizing melodies}
      \field{volume}{11}
      \field{year}{2009}
      \field{pages}{31\bibrangedash 41}
      \range{pages}{11}
    \endentry
    \entry{ooa-tutor}{report}{}
      \name{author}{1}{}{%
        {{hash=8df0bcdbed996727fdd3f25ce866f987}{%
           family={Jeffrey\bibnamedelima Bonar},
           familyi={J\bibinitperiod\bibinitdelim B\bibinitperiod},
           given={Jamie\bibnamedelima Schults},
           giveni={J\bibinitperiod\bibinitdelim S\bibinitperiod},
           suffix={Robert\bibnamedelima Cunningham},
           suffixi={R\bibinitperiod\bibinitdelim C\bibinitperiod}}}%
      }
      \list{institution}{1}{%
        {University of Pittsburgh}%
      }
      \strng{namehash}{8df0bcdbed996727fdd3f25ce866f987}
      \strng{fullhash}{8df0bcdbed996727fdd3f25ce866f987}
      \strng{bibnamehash}{8df0bcdbed996727fdd3f25ce866f987}
      \strng{authorbibnamehash}{8df0bcdbed996727fdd3f25ce866f987}
      \strng{authornamehash}{8df0bcdbed996727fdd3f25ce866f987}
      \strng{authorfullhash}{8df0bcdbed996727fdd3f25ce866f987}
      \field{sortinit}{J}
      \field{sortinithash}{fce5f8d0bd05e8d93f3dbe21c78897ca}
      \field{extradatescope}{labelyear}
      \field{labeldatesource}{year}
      \field{labelnamesource}{author}
      \field{labeltitlesource}{title}
      \field{title}{An Object-Oriented Architecture for Intelligent Tutoring Systems}
      \field{type}{techreport}
      \field{year}{1987}
    \endentry
    \entry{transfer-int}{article}{}
      \name{author}{1}{}{%
        {{hash=0f0b5dedfcdfdfbd3147e0a158ded039}{%
           family={Jie\bibnamedelima Lu},
           familyi={J\bibinitperiod\bibinitdelim L\bibinitperiod},
           given={Peng\bibnamedelima Hao},
           giveni={P\bibinitperiod\bibinitdelim H\bibinitperiod},
           suffix={Vahid\bibnamedelima Behbood},
           suffixi={V\bibinitperiod\bibinitdelim B\bibinitperiod}}}%
      }
      \strng{namehash}{0f0b5dedfcdfdfbd3147e0a158ded039}
      \strng{fullhash}{0f0b5dedfcdfdfbd3147e0a158ded039}
      \strng{bibnamehash}{0f0b5dedfcdfdfbd3147e0a158ded039}
      \strng{authorbibnamehash}{0f0b5dedfcdfdfbd3147e0a158ded039}
      \strng{authornamehash}{0f0b5dedfcdfdfbd3147e0a158ded039}
      \strng{authorfullhash}{0f0b5dedfcdfdfbd3147e0a158ded039}
      \field{sortinit}{J}
      \field{sortinithash}{fce5f8d0bd05e8d93f3dbe21c78897ca}
      \field{extradatescope}{labelyear}
      \field{labeldatesource}{year}
      \field{labelnamesource}{author}
      \field{labeltitlesource}{title}
      \field{journaltitle}{Knowledge-Based Systems}
      \field{title}{Transfer Learning using Computational Intelligence: A Survey}
      \field{volume}{80}
      \field{year}{2015}
    \endentry
    \entry{generic-obj-rec}{article}{}
      \name{author}{1}{}{%
        {{hash=20651cf95ec5ed6cab5c750f6b30eb27}{%
           family={Julian\bibnamedelima Kerr},
           familyi={J\bibinitperiod\bibinitdelim K\bibinitperiod},
           given={Paul\bibnamedelima Compton},
           giveni={P\bibinitperiod\bibinitdelim C\bibinitperiod}}}%
      }
      \strng{namehash}{20651cf95ec5ed6cab5c750f6b30eb27}
      \strng{fullhash}{20651cf95ec5ed6cab5c750f6b30eb27}
      \strng{bibnamehash}{20651cf95ec5ed6cab5c750f6b30eb27}
      \strng{authorbibnamehash}{20651cf95ec5ed6cab5c750f6b30eb27}
      \strng{authornamehash}{20651cf95ec5ed6cab5c750f6b30eb27}
      \strng{authorfullhash}{20651cf95ec5ed6cab5c750f6b30eb27}
      \field{sortinit}{J}
      \field{sortinithash}{fce5f8d0bd05e8d93f3dbe21c78897ca}
      \field{extradatescope}{labelyear}
      \field{labeldatesource}{year}
      \field{labelnamesource}{author}
      \field{labeltitlesource}{title}
      \field{abstract}{The aim of this paper is to present a system that uses both inducted hypotheses and expert knowledge for recognition of objects within digital images. Classification of pixels by spectral and spatial features is learned via example. Recognition of objects within resulting class images is performed by a novel method of search that takes advice on object properties, and enables error in object recognition to be systematically isolated and rectified. Guided by the system, a user selects whether error correction is machine-learned or user-defined. The adaptability of mixed-initiative error correction leads to wide applicability. The system is demonstrated using images from a robot soccer domain.}
      \field{journaltitle}{Proceedings of the Eighteenth International Joint Conference on Artificial Intelligence}
      \field{month}{8}
      \field{title}{Toward Generic Model-Based Object Recognition by Knowledge Acquisition and Machine Learning}
      \field{year}{2003}
      \field{pages}{9\bibrangedash 15}
      \range{pages}{7}
    \endentry
    \entry{soar}{book}{}
      \name{author}{1}{}{%
        {{hash=4f1e88fb07b19164f95d63d764b16a3c}{%
           family={Laird},
           familyi={L\bibinitperiod},
           given={John\bibnamedelima E.},
           giveni={J\bibinitperiod\bibinitdelim E\bibinitperiod}}}%
      }
      \list{publisher}{1}{%
        {The MIT Press}%
      }
      \strng{namehash}{4f1e88fb07b19164f95d63d764b16a3c}
      \strng{fullhash}{4f1e88fb07b19164f95d63d764b16a3c}
      \strng{bibnamehash}{4f1e88fb07b19164f95d63d764b16a3c}
      \strng{authorbibnamehash}{4f1e88fb07b19164f95d63d764b16a3c}
      \strng{authornamehash}{4f1e88fb07b19164f95d63d764b16a3c}
      \strng{authorfullhash}{4f1e88fb07b19164f95d63d764b16a3c}
      \field{sortinit}{L}
      \field{sortinithash}{2c7981aaabc885868aba60f0c09ee20f}
      \field{extradatescope}{labelyear}
      \field{labeldatesource}{year}
      \field{labelnamesource}{author}
      \field{labeltitlesource}{title}
      \field{title}{The Soar Cognitive Architecture}
      \field{year}{2012}
    \endentry
    \entry{gp-ml-framework}{article}{}
      \name{author}{1}{}{%
        {{hash=14b7b4a2a107b5299040e2bae601e237}{%
           family={Logan\bibnamedelima Ward},
           familyi={L\bibinitperiod\bibinitdelim W\bibinitperiod},
           given={Alok\bibnamedelima Choudhary},
           giveni={A\bibinitperiod\bibinitdelim C\bibinitperiod},
           suffix={Ankit\bibnamedelima Agrawal},
           suffixi={A\bibinitperiod\bibinitdelim A\bibinitperiod}}}%
      }
      \strng{namehash}{14b7b4a2a107b5299040e2bae601e237}
      \strng{fullhash}{14b7b4a2a107b5299040e2bae601e237}
      \strng{bibnamehash}{14b7b4a2a107b5299040e2bae601e237}
      \strng{authorbibnamehash}{14b7b4a2a107b5299040e2bae601e237}
      \strng{authornamehash}{14b7b4a2a107b5299040e2bae601e237}
      \strng{authorfullhash}{14b7b4a2a107b5299040e2bae601e237}
      \field{sortinit}{L}
      \field{sortinithash}{2c7981aaabc885868aba60f0c09ee20f}
      \field{extradatescope}{labelyear}
      \field{labeldatesource}{year}
      \field{labelnamesource}{author}
      \field{labeltitlesource}{title}
      \field{abstract}{A very active area of materials research is to devise methods that use machine learning to automatically extract predictive models from existing materials data. While prior examples have demonstrated successful models for some applications, many more applications exist where machine learning can make a strong impact. To enable faster development of machine-learning-based models for such applications, we have created a framework capable of being applied to a broad range of materials data. Our method works by using a chemically diverse list of attributes, which we demonstrate are suitable for describing a wide variety of properties, and a novel method for partitioning the data set into groups of similar materials to boost the predictive accuracy. In this manuscript, we demonstrate how this new method can be used to predict diverse properties of crystalline and amorphous materials, such as band gap energy and glass-forming ability.}
      \field{journaltitle}{npj Computational Materials}
      \field{title}{A general-purpose machine learning framework for predicting properties of inorganic materials}
      \field{volume}{2}
      \field{year}{2016}
      \field{pages}{16028}
      \range{pages}{1}
    \endentry
    \entry{meta-opt}{article}{}
      \name{author}{1}{}{%
        {{hash=234e68fb32b1d814ea7b060ca9e3bd32}{%
           family={Mark\bibnamedelima Stephenson},
           familyi={M\bibinitperiod\bibinitdelim S\bibinitperiod},
           given={Martin\bibnamedelima Martin},
           giveni={M\bibinitperiod\bibinitdelim M\bibinitperiod},
           suffix={Saman\bibnamedelima Amarasinghe},
           suffixi={S\bibinitperiod\bibinitdelim A\bibinitperiod}}}%
      }
      \strng{namehash}{234e68fb32b1d814ea7b060ca9e3bd32}
      \strng{fullhash}{234e68fb32b1d814ea7b060ca9e3bd32}
      \strng{bibnamehash}{234e68fb32b1d814ea7b060ca9e3bd32}
      \strng{authorbibnamehash}{234e68fb32b1d814ea7b060ca9e3bd32}
      \strng{authornamehash}{234e68fb32b1d814ea7b060ca9e3bd32}
      \strng{authorfullhash}{234e68fb32b1d814ea7b060ca9e3bd32}
      \field{sortinit}{M}
      \field{sortinithash}{cfd219b90152c06204fab207bc6c7cab}
      \field{extradatescope}{labelyear}
      \field{labeldatesource}{year}
      \field{labelnamesource}{author}
      \field{labeltitlesource}{title}
      \field{abstract}{Compiler writers have crafted many heuristics over the years to approximately solve NP-hard problems efficiently. Finding a heuristic that performs well on a broad range of applications is a tedious and difficult process. This paper introduces Meta Optimization, a methodology for automatically fine-tuning compiler heuristics. Meta Optimization uses machine-learning techniques to automatically search the space of compiler heuristics. Our techniques reduce compiler design complexity by relieving compiler writers of the tedium of heuristic tuning. Our machine-learning system uses an evolutionary algorithm to automatically find effective compiler heuristics. We present promising experimental results. In one mode of operation Meta Optimization creates application-specific heuristics which often result in impressive speedups. For hyperblock formation, one optimization we present in this paper, we obtain an average speedup of 23\% (up to 73\%) for the applications in our suite. Furthermore, by evolving a compiler's heuristic over several benchmarks, we can create effective, general-purpose heuristics. The best general-purpose heuristic our system found for hyperblock formation improved performance by an average of 25\% on our training set, and 9\% on a completely unrelated test set. We demonstrate the efficacy of our techniques on three different optimizations in this paper: hyperblock formation, register allocation, and data prefetching.}
      \field{journaltitle}{ACM sigplan notices}
      \field{month}{5}
      \field{number}{5}
      \field{title}{Meta optimization: Improving compiler heuristics with machine learning}
      \field{volume}{38}
      \field{year}{2003}
      \field{pages}{77\bibrangedash 90}
      \range{pages}{14}
    \endentry
    \entry{ibm-auto-comp}{book}{}
      \name{author}{1}{}{%
        {{hash=493579d4d2f773e44bed361b3cb807f4}{%
           family={Murch},
           familyi={M\bibinitperiod},
           given={Richard},
           giveni={R\bibinitperiod}}}%
      }
      \list{publisher}{1}{%
        {IBM Press}%
      }
      \strng{namehash}{493579d4d2f773e44bed361b3cb807f4}
      \strng{fullhash}{493579d4d2f773e44bed361b3cb807f4}
      \strng{bibnamehash}{493579d4d2f773e44bed361b3cb807f4}
      \strng{authorbibnamehash}{493579d4d2f773e44bed361b3cb807f4}
      \strng{authornamehash}{493579d4d2f773e44bed361b3cb807f4}
      \strng{authorfullhash}{493579d4d2f773e44bed361b3cb807f4}
      \field{sortinit}{M}
      \field{sortinithash}{cfd219b90152c06204fab207bc6c7cab}
      \field{extradatescope}{labelyear}
      \field{labeldatesource}{year}
      \field{labelnamesource}{author}
      \field{labeltitlesource}{title}
      \field{title}{Autonomic Computing}
      \field{year}{2004}
    \endentry
    \entry{id-its}{article}{}
      \name{author}{1}{}{%
        {{hash=ffd42af8f5eca126597fad749844042b}{%
           family={Neil\bibnamedelimb C.\bibnamedelimi Rowe},
           familyi={N\bibinitperiod\bibinitdelim C\bibinitperiod\bibinitdelim R\bibinitperiod},
           given={Sandra\bibnamedelima Schiavo},
           giveni={S\bibinitperiod\bibinitdelim S\bibinitperiod}}}%
      }
      \strng{namehash}{ffd42af8f5eca126597fad749844042b}
      \strng{fullhash}{ffd42af8f5eca126597fad749844042b}
      \strng{bibnamehash}{ffd42af8f5eca126597fad749844042b}
      \strng{authorbibnamehash}{ffd42af8f5eca126597fad749844042b}
      \strng{authornamehash}{ffd42af8f5eca126597fad749844042b}
      \strng{authorfullhash}{ffd42af8f5eca126597fad749844042b}
      \field{sortinit}{N}
      \field{sortinithash}{f7242c3ed3dc50029fca1be76c497c7c}
      \field{extradatescope}{labelyear}
      \field{labeldatesource}{year}
      \field{labelnamesource}{author}
      \field{labeltitlesource}{title}
      \field{journaltitle}{Computers \& Education}
      \field{number}{4}
      \field{title}{An intelligent tutor for intrusion detection on computer systems}
      \field{volume}{31}
      \field{year}{1998}
      \field{pages}{395\bibrangedash 404}
      \range{pages}{10}
    \endentry
    \entry{gml}{article}{}
      \name{author}{1}{}{%
        {{hash=f8942a6e7fb9e33fb51132d75833afec}{%
           family={Pedro\bibnamedelima Casas},
           familyi={P\bibinitperiod\bibinitdelim C\bibinitperiod},
           given={Kensuke\bibnamedelima Fukuda},
           giveni={K\bibinitperiod\bibinitdelim F\bibinitperiod},
           suffix={Juan\bibnamedelima Vanerio},
           suffixi={J\bibinitperiod\bibinitdelim V\bibinitperiod}}}%
      }
      \strng{namehash}{f8942a6e7fb9e33fb51132d75833afec}
      \strng{fullhash}{f8942a6e7fb9e33fb51132d75833afec}
      \strng{bibnamehash}{f8942a6e7fb9e33fb51132d75833afec}
      \strng{authorbibnamehash}{f8942a6e7fb9e33fb51132d75833afec}
      \strng{authornamehash}{f8942a6e7fb9e33fb51132d75833afec}
      \strng{authorfullhash}{f8942a6e7fb9e33fb51132d75833afec}
      \field{sortinit}{P}
      \field{sortinithash}{8d51b3d5b78d75b54308d706b9bbe285}
      \field{extradatescope}{labelyear}
      \field{labeldatesource}{year}
      \field{labelnamesource}{author}
      \field{labeltitlesource}{title}
      \field{abstract}{The application of machine learning models to the analysis of network measurement problems has largely increased in the last decade; however, there is still no clear best-practice or silver bullet approach to address these problems in a general context, and only adhoc and tailored approaches have been evaluated so far. While deep-learning models have provided a major breakthrough in highly-dimensional problems such as image processing, it is difficult to say today which is the best model to address the analysis of large volumes of highly- dimensional data collected in operational networks. In this paper we present a potential solution to fill this gap, exploring the application of ensemble learning models to multiple network measurement problems. We introduce GML Learning, a generic Machine Learning model for the analysis of network measure- ments. The GML model is a generalization of the well-known stacking approach to ensemble learning, and follows the concepts of the Super Learner model. The Super Learner performs asymptotically as well as the best input base or weak learners, providing a very powerful approach to tackle multiple problems with the same technique. In addition, it defines an approach to minimize over-fitting likelihood during training, using a variant of cross-validation. We deploy the GML model on top of Big- DAMA, a big data analytics framework for network measurement applications. We test the proposed solution in five different and assorted network measurement problems, including detection of network attacks and anomalies, QoE modeling and prediction, and Internet-paths dynamics tracking. Results confirm that the GML model provides better results than any of the single baseline models of the stack, and outperforms traditional bagging and boosting ensemble learning approaches. The GML Learning model opens the door for a generalization of a best-practice technique for the analysis of network measurements.}
      \field{journaltitle}{The International Federation for Information Processing (IFIP)}
      \field{title}{GML Learning, A Generic Machine Learning Model for Network Measureemnts Analysis}
      \field{year}{2017}
      \keyw{Big-Data; Network Traffic Monitoring and Analysis; Machine Learning; Ensemble Learning; Super Learn- ing; Network Measurements}
    \endentry
    \entry{metacog}{article}{}
      \name{author}{1}{}{%
        {{hash=ff3de6fbc3f0a5d28f575cfa5cd6e07a}{%
           family={Randy\bibnamedelimb M.\bibnamedelimi Isascson},
           familyi={R\bibinitperiod\bibinitdelim M\bibinitperiod\bibinitdelim I\bibinitperiod},
           given={Frank\bibnamedelima Fujita},
           giveni={F\bibinitperiod\bibinitdelim F\bibinitperiod}}}%
      }
      \strng{namehash}{ff3de6fbc3f0a5d28f575cfa5cd6e07a}
      \strng{fullhash}{ff3de6fbc3f0a5d28f575cfa5cd6e07a}
      \strng{bibnamehash}{ff3de6fbc3f0a5d28f575cfa5cd6e07a}
      \strng{authorbibnamehash}{ff3de6fbc3f0a5d28f575cfa5cd6e07a}
      \strng{authornamehash}{ff3de6fbc3f0a5d28f575cfa5cd6e07a}
      \strng{authorfullhash}{ff3de6fbc3f0a5d28f575cfa5cd6e07a}
      \field{sortinit}{R}
      \field{sortinithash}{da6b42bd3ab22fee61abed031ee405f7}
      \field{extradatescope}{labelyear}
      \field{labeldatesource}{year}
      \field{labelnamesource}{author}
      \field{labeltitlesource}{title}
      \field{journaltitle}{Journal of the Scholarship of Teaching and Learning}
      \field{number}{1}
      \field{title}{Metacognitive Knowledge Monitoring and Self-Regulated Learning: Academic Success and Reflections on Learning}
      \field{volume}{6}
      \field{year}{2006}
      \field{pages}{39\bibrangedash 55}
      \range{pages}{17}
    \endentry
    \entry{comp-generic-ml}{article}{}
      \name{author}{1}{}{%
        {{hash=569a4f816ec3015101eab2026ee1f5f3}{%
           family={Rapha{ë}l\bibnamedelima Mar{è}e},
           familyi={R\bibinitperiod\bibinitdelim M\bibinitperiod},
           given={Giorgio\bibnamedelima Visimberga},
           giveni={G\bibinitperiod\bibinitdelim V\bibinitperiod},
           suffix={Pierre\bibnamedelima Geurts},
           suffixi={P\bibinitperiod\bibinitdelim G\bibinitperiod}}}%
      }
      \strng{namehash}{569a4f816ec3015101eab2026ee1f5f3}
      \strng{fullhash}{569a4f816ec3015101eab2026ee1f5f3}
      \strng{bibnamehash}{569a4f816ec3015101eab2026ee1f5f3}
      \strng{authorbibnamehash}{569a4f816ec3015101eab2026ee1f5f3}
      \strng{authornamehash}{569a4f816ec3015101eab2026ee1f5f3}
      \strng{authorfullhash}{569a4f816ec3015101eab2026ee1f5f3}
      \field{sortinit}{R}
      \field{sortinithash}{da6b42bd3ab22fee61abed031ee405f7}
      \field{extradatescope}{labelyear}
      \field{labeldatesource}{year}
      \field{labelnamesource}{author}
      \field{labeltitlesource}{title}
      \field{abstract}{In this paper, we evaluate 7 machine learning algorithms for image classification including our recent approach that combines building of ensembles of extremely randomized trees and extraction of sub-windows from the original images. For the approach to be generic, all these methods are applied directly on pixel values without any feature extraction. We compared them on four publicly available datasets corresponding to representative applications of image classification problems: handwritten digits (MNIST), faces (ORL), 3D objects (COIL-IOO), and textures (OUTEX). A comparison with studies from the computer vision literature shows that generic methods can come remarkably close to specialized methods. In particular, our sub-window algorithm is competitive with the state of the art, a remarkable result considering its generality and conceptual simplicity.}
      \field{journaltitle}{International Conference on Innovative Techniques and Applications of Artificial Intelligence}
      \field{month}{12}
      \field{title}{A Comparision of Genetic Machine Learning Algorithms for Image Classification}
      \field{year}{2003}
    \endentry
    \entry{generic-tree-ensemble}{article}{}
      \name{author}{1}{}{%
        {{hash=b54cb6feafe6a9dd49e392ed12a914ba}{%
           family={Rapha{ë}l\bibnamedelima Mar{é}e},
           familyi={R\bibinitperiod\bibinitdelim M\bibinitperiod},
           given={Justus\bibnamedelima Piater},
           giveni={J\bibinitperiod\bibinitdelim P\bibinitperiod},
           suffix={Pierre\bibnamedelima Geurts},
           suffixi={P\bibinitperiod\bibinitdelim G\bibinitperiod}}}%
      }
      \strng{namehash}{b54cb6feafe6a9dd49e392ed12a914ba}
      \strng{fullhash}{b54cb6feafe6a9dd49e392ed12a914ba}
      \strng{bibnamehash}{b54cb6feafe6a9dd49e392ed12a914ba}
      \strng{authorbibnamehash}{b54cb6feafe6a9dd49e392ed12a914ba}
      \strng{authornamehash}{b54cb6feafe6a9dd49e392ed12a914ba}
      \strng{authorfullhash}{b54cb6feafe6a9dd49e392ed12a914ba}
      \field{sortinit}{R}
      \field{sortinithash}{da6b42bd3ab22fee61abed031ee405f7}
      \field{extradatescope}{labelyear}
      \field{labeldatesource}{year}
      \field{labelnamesource}{author}
      \field{labeltitlesource}{title}
      \field{abstract}{A novel and generic approach for image classification is presented. The method operates directly on pixel values and does not require feature extraction. It combines a simple local sub-window extraction technique with induction of ensembles of extremely randomized decision trees. We report results on four well known and publicly available datasets corresponding to representative applications of image classification problems: handwritten digits (MNIST), faces (ORL), 3D objects (COIL-100), and textures (OUTEX). A comparison with studies from the computer vision literature shows that our method is competitive with the state of the art, an interesting result considering its generality and conceptual simplicity. Further experiments are carried out on the COIL-100 dataset to evaluate the robustness of the learned models to rotation, scaling, or occlusion of test images. These preliminary results are very encouraging.}
      \field{journaltitle}{Proceedings of the 6th Asian Conference on Computer Vision}
      \field{title}{A generic approach for image classification based on decision tree ensembles and local sub-windows}
      \field{volume}{2}
      \field{year}{2004}
      \field{pages}{860\bibrangedash 865}
      \range{pages}{6}
    \endentry
    \entry{transfer-survey}{article}{}
      \name{author}{1}{}{%
        {{hash=9325daeeb3c3b9b2b3adf46c6e16f4da}{%
           family={Sinno\bibnamedelimb Jianlin\bibnamedelima Pan},
           familyi={S\bibinitperiod\bibinitdelim J\bibinitperiod\bibinitdelim P\bibinitperiod},
           given={Qiang\bibnamedelima Yang},
           giveni={Q\bibinitperiod\bibinitdelim Y\bibinitperiod}}}%
      }
      \strng{namehash}{9325daeeb3c3b9b2b3adf46c6e16f4da}
      \strng{fullhash}{9325daeeb3c3b9b2b3adf46c6e16f4da}
      \strng{bibnamehash}{9325daeeb3c3b9b2b3adf46c6e16f4da}
      \strng{authorbibnamehash}{9325daeeb3c3b9b2b3adf46c6e16f4da}
      \strng{authornamehash}{9325daeeb3c3b9b2b3adf46c6e16f4da}
      \strng{authorfullhash}{9325daeeb3c3b9b2b3adf46c6e16f4da}
      \field{sortinit}{S}
      \field{sortinithash}{322b1d5276f2f6c1bccdcd15920dbee6}
      \field{extradatescope}{labelyear}
      \field{labeldatesource}{year}
      \field{labelnamesource}{author}
      \field{labeltitlesource}{title}
      \field{journaltitle}{IEEE Transactions on Knowledge and Data Engineering}
      \field{title}{A Survey on Transfer Learning}
      \field{year}{2009}
    \endentry
    \entry{physics-ml}{article}{}
      \name{author}{1}{}{%
        {{hash=b8ae336b3eea718af5614cafbadd41bb}{%
           family={Xiaowei\bibnamedelima Jia},
           familyi={X\bibinitperiod\bibinitdelim J\bibinitperiod},
           given={Anuj\bibnamedelima Kapatne},
           giveni={A\bibinitperiod\bibinitdelim K\bibinitperiod},
           suffix={Jared\bibnamedelima Willard},
           suffixi={J\bibinitperiod\bibinitdelim W\bibinitperiod}}}%
      }
      \strng{namehash}{b8ae336b3eea718af5614cafbadd41bb}
      \strng{fullhash}{b8ae336b3eea718af5614cafbadd41bb}
      \strng{bibnamehash}{b8ae336b3eea718af5614cafbadd41bb}
      \strng{authorbibnamehash}{b8ae336b3eea718af5614cafbadd41bb}
      \strng{authornamehash}{b8ae336b3eea718af5614cafbadd41bb}
      \strng{authorfullhash}{b8ae336b3eea718af5614cafbadd41bb}
      \field{sortinit}{X}
      \field{sortinithash}{b0b62a29ee4a21a0e618fed53a0313cc}
      \field{extradatescope}{labelyear}
      \field{labeldatesource}{year}
      \field{labelnamesource}{author}
      \field{labeltitlesource}{title}
      \field{journaltitle}{ACM}
      \field{title}{Physics-Guided Machine Learning for Scientific Discovery: An Application in Simulating Lake Temperature Profiles}
      \field{year}{2020}
    \endentry
    \entry{represent-learning}{article}{}
      \name{author}{1}{}{%
        {{hash=773292b14b06732ef5c417a6dfbc7540}{%
           family={Yoshua\bibnamedelima Bengio},
           familyi={Y\bibinitperiod\bibinitdelim B\bibinitperiod},
           given={Pascal\bibnamedelima Vincent},
           giveni={P\bibinitperiod\bibinitdelim V\bibinitperiod},
           suffix={Aaron\bibnamedelima Courville},
           suffixi={A\bibinitperiod\bibinitdelim C\bibinitperiod}}}%
      }
      \strng{namehash}{773292b14b06732ef5c417a6dfbc7540}
      \strng{fullhash}{773292b14b06732ef5c417a6dfbc7540}
      \strng{bibnamehash}{773292b14b06732ef5c417a6dfbc7540}
      \strng{authorbibnamehash}{773292b14b06732ef5c417a6dfbc7540}
      \strng{authornamehash}{773292b14b06732ef5c417a6dfbc7540}
      \strng{authorfullhash}{773292b14b06732ef5c417a6dfbc7540}
      \field{sortinit}{Y}
      \field{sortinithash}{b8d711a035f7be9840c721c82920477e}
      \field{extradatescope}{labelyear}
      \field{labeldatesource}{year}
      \field{labelnamesource}{author}
      \field{labeltitlesource}{title}
      \field{abstract}{The success of machine learning algorithms generally depends on data representation, and we hypothesize that this is because different representations can entangle and hide more or less the different explanatory factors of variation behind the data. Although specific domain knowledge can be used to help design representations, learning with generic priors can also be used, and the quest for AI is motivating the design of more powerful representation-learning algorithms implementing such priors. This paper reviews recent work in the area of unsupervised feature learning and deep learning, covering advances in probabilistic models, auto-encoders, manifold learning, and deep networks. This motivates longer-term unanswered questions about the appropriate objectives for learning good representations, for computing representations (i.e., inference), and the geometrical connections between representation learning, density estimation and manifold lea}
      \field{title}{Representation Learning: A Review and New Perspectives}
      \field{year}{2014}
      \keyw{Deep learning,representation learning,feature learning,unsupervised learning,Boltzmann Machine,autoencoder,neural nets}
    \endentry
  \enddatalist
\endrefsection
\endinput

