[0] Config.pm:304> INFO - This is Biber 2.12
[0] Config.pm:307> INFO - Logfile is '/Users/patrickday/Documents/CS6460/Assignment 3/.texpadtmp/Assignment3_PatrickDay.blg'
[64] biber-darwin:315> INFO - === Mon Sep 14, 2020, 08:46:26
[95] Biber.pm:371> INFO - Reading '/Users/patrickday/Documents/CS6460/Assignment 3/.texpadtmp/Assignment3_PatrickDay.bcf'
[238] Biber.pm:889> INFO - Found 7 citekeys in bib section 0
[260] Biber.pm:4093> INFO - Processing section 0
[274] Biber.pm:4254> INFO - Looking for bibtex format file '/Users/patrickday/Documents/CS6460/Assignment 3/references.bib' for section 0
[276] bibtex.pm:1523> INFO - LaTeX decoding ...
[321] bibtex.pm:1340> INFO - Found BibTeX data source '/Users/patrickday/Documents/CS6460/Assignment 3/references.bib'
[323] Utils.pm:193> WARN - Duplicate entry key: 'ooa-tutor' in file '/Users/patrickday/Documents/CS6460/Assignment 3/references.bib', skipping ...
[595] UCollate.pm:68> INFO - Overriding locale 'en-US' defaults 'normalization = NFD' with 'normalization = prenormalized'
[595] UCollate.pm:68> INFO - Overriding locale 'en-US' defaults 'variable = shifted' with 'variable = non-ignorable'
[595] Biber.pm:3921> INFO - Sorting list 'nyt/global//global/global' of type 'entry' with template 'nyt' and locale 'en-US'
[595] Biber.pm:3927> INFO - No sort tailoring available for locale 'en-US'
[605] bbl.pm:636> INFO - Writing '/Users/patrickday/Documents/CS6460/Assignment 3/.texpadtmp/Assignment3_PatrickDay.bbl' with encoding 'UTF-8'
[608] bbl.pm:739> INFO - Output to /Users/patrickday/Documents/CS6460/Assignment 3/.texpadtmp/Assignment3_PatrickDay.bbl
[608] Biber.pm:110> INFO - WARNINGS: 1
