\BOOKMARK [1][-]{section.1}{Background}{}% 1
\BOOKMARK [1][-]{section.2}{The Problem}{}% 2
\BOOKMARK [2][-]{subsection.2.1}{Working Memory - Frames}{section.2}% 3
\BOOKMARK [2][-]{subsection.2.2}{Long Term Memory - Procedural, Semantic, Episodic}{section.2}% 4
\BOOKMARK [1][-]{section.3}{Knowledge Representation}{}% 5
\BOOKMARK [1][-]{section.4}{Pulling It All Together}{}% 6
\BOOKMARK [1][-]{section.5}{References}{}% 7
