\relax 
\providecommand\hyper@newdestlabel[2]{}
\providecommand\HyperFirstAtBeginDocument{\AtBeginDocument}
\HyperFirstAtBeginDocument{\ifx\hyper@anchor\@undefined
\global\let\oldcontentsline\contentsline
\gdef\contentsline#1#2#3#4{\oldcontentsline{#1}{#2}{#3}}
\global\let\oldnewlabel\newlabel
\gdef\newlabel#1#2{\newlabelxx{#1}#2}
\gdef\newlabelxx#1#2#3#4#5#6{\oldnewlabel{#1}{{#2}{#3}}}
\AtEndDocument{\ifx\hyper@anchor\@undefined
\let\contentsline\oldcontentsline
\let\newlabel\oldnewlabel
\fi}
\fi}
\global\let\hyper@last\relax 
\gdef\HyperFirstAtBeginDocument#1{#1}
\providecommand\HyField@AuxAddToFields[1]{}
\providecommand\HyField@AuxAddToCoFields[2]{}
\abx@aux@refcontext{nyt/global//global/global}
\abx@aux@cite{support-case-base}
\abx@aux@segm{0}{0}{support-case-base}
\abx@aux@segm{0}{0}{support-case-base}
\abx@aux@cite{ooa-tutor}
\abx@aux@segm{0}{0}{ooa-tutor}
\abx@aux@segm{0}{0}{ooa-tutor}
\abx@aux@cite{its-survey}
\abx@aux@segm{0}{0}{its-survey}
\abx@aux@segm{0}{0}{its-survey}
\abx@aux@segm{0}{0}{ooa-tutor}
\abx@aux@segm{0}{0}{ooa-tutor}
\abx@aux@segm{0}{0}{its-survey}
\abx@aux@segm{0}{0}{its-survey}
\abx@aux@segm{0}{0}{ooa-tutor}
\abx@aux@segm{0}{0}{ooa-tutor}
\abx@aux@cite{plan-tutor}
\abx@aux@segm{0}{0}{plan-tutor}
\abx@aux@segm{0}{0}{plan-tutor}
\abx@aux@segm{0}{0}{its-survey}
\abx@aux@segm{0}{0}{its-survey}
\@writefile{toc}{\boolfalse {citerequest}\boolfalse {citetracker}\boolfalse {pagetracker}\boolfalse {backtracker}\relax }
\@writefile{lof}{\boolfalse {citerequest}\boolfalse {citetracker}\boolfalse {pagetracker}\boolfalse {backtracker}\relax }
\@writefile{lot}{\boolfalse {citerequest}\boolfalse {citetracker}\boolfalse {pagetracker}\boolfalse {backtracker}\relax }
\babel@aux{english}{}
\@writefile{toc}{\defcounter {refsection}{0}\relax }\@writefile{toc}{\contentsline {section}{\numberline {1}Background}{1}{section.1}\protected@file@percent }
\@writefile{toc}{\defcounter {refsection}{0}\relax }\@writefile{toc}{\contentsline {section}{\numberline {2}The Problem}{1}{section.2}\protected@file@percent }
\abx@aux@cite{soar}
\abx@aux@segm{0}{0}{soar}
\abx@aux@segm{0}{0}{soar}
\@writefile{lof}{\defcounter {refsection}{0}\relax }\@writefile{lof}{\contentsline {figure}{\numberline {1}{\ignorespaces Intelligent Tutoring System Architecture\relax }}{2}{figure.caption.1}\protected@file@percent }
\providecommand*\caption@xref[2]{\@setref\relax\@undefined{#1}}
\newlabel{fig:its-arch}{{1}{2}{Intelligent Tutoring System Architecture\relax }{figure.caption.1}{}}
\abx@aux@segm{0}{0}{soar}
\abx@aux@segm{0}{0}{soar}
\@writefile{lof}{\defcounter {refsection}{0}\relax }\@writefile{lof}{\contentsline {figure}{\numberline {2}{\ignorespaces (a) Example production rules; and (b) The SOAR Architecture as explained by J. Laird~(\citeauthor {soar}, \citeyear {soar})\relax }}{3}{figure.caption.2}\protected@file@percent }
\newlabel{fig:rules-soar}{{2}{3}{(a) Example production rules; and (b) The SOAR Architecture as explained by J. Laird~(\cite {soar})\relax }{figure.caption.2}{}}
\@writefile{toc}{\defcounter {refsection}{0}\relax }\@writefile{toc}{\contentsline {subsection}{\numberline {2.1}Working Memory - Frames}{3}{subsection.2.1}\protected@file@percent }
\@writefile{toc}{\defcounter {refsection}{0}\relax }\@writefile{toc}{\contentsline {subsection}{\numberline {2.2}Long Term Memory - Procedural, Semantic, Episodic}{3}{subsection.2.2}\protected@file@percent }
\abx@aux@segm{0}{0}{ooa-tutor}
\abx@aux@segm{0}{0}{ooa-tutor}
\abx@aux@cite{ibm-auto-comp}
\abx@aux@segm{0}{0}{ibm-auto-comp}
\abx@aux@segm{0}{0}{ibm-auto-comp}
\abx@aux@segm{0}{0}{ibm-auto-comp}
\abx@aux@segm{0}{0}{ibm-auto-comp}
\@writefile{toc}{\defcounter {refsection}{0}\relax }\@writefile{toc}{\contentsline {section}{\numberline {3}Knowledge Representation}{4}{section.3}\protected@file@percent }
\abx@aux@cite{represent-learning}
\abx@aux@segm{0}{0}{represent-learning}
\abx@aux@segm{0}{0}{represent-learning}
\abx@aux@cite{transfer-survey}
\abx@aux@segm{0}{0}{transfer-survey}
\abx@aux@segm{0}{0}{transfer-survey}
\abx@aux@cite{transfer-int}
\abx@aux@segm{0}{0}{transfer-int}
\abx@aux@segm{0}{0}{transfer-int}
\@writefile{lof}{\defcounter {refsection}{0}\relax }\@writefile{lof}{\contentsline {figure}{\numberline {3}{\ignorespaces MAPE-K Feedback Loop.\relax }}{5}{figure.caption.3}\protected@file@percent }
\newlabel{fig:mape-k}{{3}{5}{MAPE-K Feedback Loop.\relax }{figure.caption.3}{}}
\@writefile{toc}{\defcounter {refsection}{0}\relax }\@writefile{toc}{\contentsline {section}{\numberline {4}Pulling It All Together}{5}{section.4}\protected@file@percent }
\abx@aux@refcontextdefaultsdone
\abx@aux@defaultrefcontext{0}{its-survey}{nyt/global//global/global}
\abx@aux@defaultrefcontext{0}{plan-tutor}{nyt/global//global/global}
\abx@aux@defaultrefcontext{0}{support-case-base}{nyt/global//global/global}
\abx@aux@defaultrefcontext{0}{ooa-tutor}{nyt/global//global/global}
\abx@aux@defaultrefcontext{0}{transfer-int}{nyt/global//global/global}
\abx@aux@defaultrefcontext{0}{soar}{nyt/global//global/global}
\abx@aux@defaultrefcontext{0}{ibm-auto-comp}{nyt/global//global/global}
\abx@aux@defaultrefcontext{0}{transfer-survey}{nyt/global//global/global}
\abx@aux@defaultrefcontext{0}{represent-learning}{nyt/global//global/global}
\@writefile{toc}{\defcounter {refsection}{0}\relax }\@writefile{toc}{\contentsline {section}{\numberline {5}References}{6}{section.5}\protected@file@percent }
\abx@aux@page{33}{6}
\abx@aux@page{34}{6}
\abx@aux@page{35}{6}
\abx@aux@page{36}{6}
\abx@aux@page{37}{6}
\abx@aux@page{38}{6}
\abx@aux@page{39}{6}
\abx@aux@page{40}{6}
\abx@aux@page{41}{6}
