% $ biblatex auxiliary file $
% $ biblatex bbl format version 3.0 $
% Do not modify the above lines!
%
% This is an auxiliary file used by the 'biblatex' package.
% This file may safely be deleted. It will be recreated by
% biber as required.
%
\begingroup
\makeatletter
\@ifundefined{ver@biblatex.sty}
  {\@latex@error
     {Missing 'biblatex' package}
     {The bibliography requires the 'biblatex' package.}
      \aftergroup\endinput}
  {}
\endgroup


\refsection{0}
  \datalist[entry]{nyt/global//global/global}
    \entry{learning2learn}{article}{}
      \name{author}{1}{}{%
        {{hash=87a4ba72a707d5977618ccb54d8f7e72}{%
           family={Adrian\bibnamedelima Calma},
           familyi={A\bibinitperiod\bibinitdelim C\bibinitperiod},
           given={Bernhard\bibnamedelima Sick},
           giveni={B\bibinitperiod\bibinitdelim S\bibinitperiod},
           suffix={Daniel\bibnamedelima Kottke},
           suffixi={D\bibinitperiod\bibinitdelim K\bibinitperiod}}}%
      }
      \strng{namehash}{87a4ba72a707d5977618ccb54d8f7e72}
      \strng{fullhash}{87a4ba72a707d5977618ccb54d8f7e72}
      \strng{bibnamehash}{87a4ba72a707d5977618ccb54d8f7e72}
      \strng{authorbibnamehash}{87a4ba72a707d5977618ccb54d8f7e72}
      \strng{authornamehash}{87a4ba72a707d5977618ccb54d8f7e72}
      \strng{authorfullhash}{87a4ba72a707d5977618ccb54d8f7e72}
      \field{sortinit}{A}
      \field{sortinithash}{d77c7cdd82ff690d4c3ef13216f92f0b}
      \field{extradatescope}{labelyear}
      \field{labeldatesource}{year}
      \field{labelnamesource}{author}
      \field{labeltitlesource}{title}
      \field{journaltitle}{IEEE 2nd International Workshop on Foundations and Applications of Self* Systems}
      \field{title}{Learning to Learn: Dynamic Runtime Exploitation of Various Knowledge Sources and Machine Learning Paradigms}
      \field{year}{2017}
    \endentry
    \entry{dl-approaches-survey}{article}{}
      \name{author}{1}{}{%
        {{hash=8e72e161b119c6c2f9fcbc933d3acae0}{%
           family={Arwa\bibnamedelima Aldweesh},
           familyi={A\bibinitperiod\bibinitdelim A\bibinitperiod},
           given={Ahmed\bibnamedelimb Z.\bibnamedelimi Emam},
           giveni={A\bibinitperiod\bibinitdelim Z\bibinitperiod\bibinitdelim E\bibinitperiod},
           suffix={Abdelouahid\bibnamedelima Derhab},
           suffixi={A\bibinitperiod\bibinitdelim D\bibinitperiod}}}%
      }
      \strng{namehash}{8e72e161b119c6c2f9fcbc933d3acae0}
      \strng{fullhash}{8e72e161b119c6c2f9fcbc933d3acae0}
      \strng{bibnamehash}{8e72e161b119c6c2f9fcbc933d3acae0}
      \strng{authorbibnamehash}{8e72e161b119c6c2f9fcbc933d3acae0}
      \strng{authornamehash}{8e72e161b119c6c2f9fcbc933d3acae0}
      \strng{authorfullhash}{8e72e161b119c6c2f9fcbc933d3acae0}
      \field{sortinit}{A}
      \field{sortinithash}{d77c7cdd82ff690d4c3ef13216f92f0b}
      \field{extradatescope}{labelyear}
      \field{labeldatesource}{year}
      \field{labelnamesource}{author}
      \field{labeltitlesource}{title}
      \field{journaltitle}{Knowledge-Based Systems}
      \field{title}{Deep Learning Approaches for Anomaly-Based Intrusion Detection Systems: A Survey, Taxonomy, and Open Issues}
      \field{volume}{189}
      \field{year}{2020}
    \endentry
    \entry{internet-gaps}{article}{}
      \name{author}{1}{}{%
        {{hash=e44252519b4440ccabec2c9e3f049e6b}{%
           family={Bonfadelli},
           familyi={B\bibinitperiod},
           given={Heinz},
           giveni={H\bibinitperiod}}}%
      }
      \strng{namehash}{e44252519b4440ccabec2c9e3f049e6b}
      \strng{fullhash}{e44252519b4440ccabec2c9e3f049e6b}
      \strng{bibnamehash}{e44252519b4440ccabec2c9e3f049e6b}
      \strng{authorbibnamehash}{e44252519b4440ccabec2c9e3f049e6b}
      \strng{authornamehash}{e44252519b4440ccabec2c9e3f049e6b}
      \strng{authorfullhash}{e44252519b4440ccabec2c9e3f049e6b}
      \field{sortinit}{B}
      \field{sortinithash}{276475738cc058478c1677046f857703}
      \field{extradatescope}{labelyear}
      \field{labeldatesource}{year}
      \field{labelnamesource}{author}
      \field{labeltitlesource}{title}
      \field{journaltitle}{European Journal of Communication}
      \field{title}{The Internet and Knowledge Gaps: A Theoretical and Empirical Investigation}
      \field{year}{2002}
    \endentry
    \entry{gia}{article}{}
      \name{author}{1}{}{%
        {{hash=777575617b3adae05c65a9f06e3aab7d}{%
           family={Cheikes},
           familyi={C\bibinitperiod},
           given={Brant\bibnamedelima A.},
           giveni={B\bibinitperiod\bibinitdelim A\bibinitperiod}}}%
      }
      \strng{namehash}{777575617b3adae05c65a9f06e3aab7d}
      \strng{fullhash}{777575617b3adae05c65a9f06e3aab7d}
      \strng{bibnamehash}{777575617b3adae05c65a9f06e3aab7d}
      \strng{authorbibnamehash}{777575617b3adae05c65a9f06e3aab7d}
      \strng{authornamehash}{777575617b3adae05c65a9f06e3aab7d}
      \strng{authorfullhash}{777575617b3adae05c65a9f06e3aab7d}
      \field{sortinit}{C}
      \field{sortinithash}{963e9d84a3da2344e8833203de5aed05}
      \field{extradatescope}{labelyear}
      \field{labeldatesource}{year}
      \field{labelnamesource}{author}
      \field{labeltitlesource}{title}
      \field{journaltitle}{Proceedings of the CIKM Workshop on Intelligent Systems}
      \field{title}{GIA: An Agent-Based Architecture for Intelligent Tutoring Systems}
      \field{year}{1995}
    \endentry
    \entry{plan-tutor}{article}{}
      \name{author}{1}{}{%
        {{hash=56296de361f195e1f2599797b7574577}{%
           family={Darwyn\bibnamedelimb R.\bibnamedelimi Peachy},
           familyi={D\bibinitperiod\bibinitdelim R\bibinitperiod\bibinitdelim P\bibinitperiod},
           given={Gordon\bibnamedelimb I.\bibnamedelimi McCalla},
           giveni={G\bibinitperiod\bibinitdelim I\bibinitperiod\bibinitdelim M\bibinitperiod}}}%
      }
      \strng{namehash}{56296de361f195e1f2599797b7574577}
      \strng{fullhash}{56296de361f195e1f2599797b7574577}
      \strng{bibnamehash}{56296de361f195e1f2599797b7574577}
      \strng{authorbibnamehash}{56296de361f195e1f2599797b7574577}
      \strng{authornamehash}{56296de361f195e1f2599797b7574577}
      \strng{authorfullhash}{56296de361f195e1f2599797b7574577}
      \field{sortinit}{D}
      \field{sortinithash}{2ef1bd9a78cc71eb74d7231c635177b8}
      \field{extradatescope}{labelyear}
      \field{labeldatesource}{year}
      \field{labelnamesource}{author}
      \field{labeltitlesource}{title}
      \field{journaltitle}{International Journal of Man-Machine Studies}
      \field{title}{Using Planning Techniques in Intelligent Tutoring Systems}
      \field{year}{1986}
    \endentry
    \entry{info-divide}{book}{}
      \name{author}{1}{}{%
        {{hash=325dc918eab24e1a74a86c624ea28189}{%
           family={Dijik},
           familyi={D\bibinitperiod},
           given={Jan\bibnamedelimb A.\bibnamedelimi G.\bibnamedelimi M.},
           giveni={J\bibinitperiod\bibinitdelim A\bibinitperiod\bibinitdelim G\bibinitperiod\bibinitdelim M\bibinitperiod},
           prefix={van},
           prefixi={v\bibinitperiod}}}%
      }
      \list{publisher}{1}{%
        {Sage Publications}%
      }
      \strng{namehash}{325dc918eab24e1a74a86c624ea28189}
      \strng{fullhash}{325dc918eab24e1a74a86c624ea28189}
      \strng{bibnamehash}{325dc918eab24e1a74a86c624ea28189}
      \strng{authorbibnamehash}{325dc918eab24e1a74a86c624ea28189}
      \strng{authornamehash}{325dc918eab24e1a74a86c624ea28189}
      \strng{authorfullhash}{325dc918eab24e1a74a86c624ea28189}
      \field{sortinit}{D}
      \field{sortinithash}{2ef1bd9a78cc71eb74d7231c635177b8}
      \field{extradatescope}{labelyear}
      \field{labeldatesource}{year}
      \field{labelnamesource}{author}
      \field{labeltitlesource}{title}
      \field{title}{The Deepening Divide: Ineuality in th Information Society}
      \field{year}{2005}
    \endentry
    \entry{ooa-tutor}{report}{}
      \name{author}{1}{}{%
        {{hash=8df0bcdbed996727fdd3f25ce866f987}{%
           family={Jeffrey\bibnamedelima Bonar},
           familyi={J\bibinitperiod\bibinitdelim B\bibinitperiod},
           given={Jamie\bibnamedelima Schults},
           giveni={J\bibinitperiod\bibinitdelim S\bibinitperiod},
           suffix={Robert\bibnamedelima Cunningham},
           suffixi={R\bibinitperiod\bibinitdelim C\bibinitperiod}}}%
      }
      \list{institution}{1}{%
        {University of Pittsburgh}%
      }
      \strng{namehash}{8df0bcdbed996727fdd3f25ce866f987}
      \strng{fullhash}{8df0bcdbed996727fdd3f25ce866f987}
      \strng{bibnamehash}{8df0bcdbed996727fdd3f25ce866f987}
      \strng{authorbibnamehash}{8df0bcdbed996727fdd3f25ce866f987}
      \strng{authornamehash}{8df0bcdbed996727fdd3f25ce866f987}
      \strng{authorfullhash}{8df0bcdbed996727fdd3f25ce866f987}
      \field{sortinit}{J}
      \field{sortinithash}{fce5f8d0bd05e8d93f3dbe21c78897ca}
      \field{extradatescope}{labelyear}
      \field{labeldatesource}{year}
      \field{labelnamesource}{author}
      \field{labeltitlesource}{title}
      \field{title}{An Object-Oriented Architecture for Intelligent Tutoring Systems}
      \field{type}{techreport}
      \field{year}{1987}
    \endentry
    \entry{transfer-int}{article}{}
      \name{author}{1}{}{%
        {{hash=0f0b5dedfcdfdfbd3147e0a158ded039}{%
           family={Jie\bibnamedelima Lu},
           familyi={J\bibinitperiod\bibinitdelim L\bibinitperiod},
           given={Peng\bibnamedelima Hao},
           giveni={P\bibinitperiod\bibinitdelim H\bibinitperiod},
           suffix={Vahid\bibnamedelima Behbood},
           suffixi={V\bibinitperiod\bibinitdelim B\bibinitperiod}}}%
      }
      \strng{namehash}{0f0b5dedfcdfdfbd3147e0a158ded039}
      \strng{fullhash}{0f0b5dedfcdfdfbd3147e0a158ded039}
      \strng{bibnamehash}{0f0b5dedfcdfdfbd3147e0a158ded039}
      \strng{authorbibnamehash}{0f0b5dedfcdfdfbd3147e0a158ded039}
      \strng{authornamehash}{0f0b5dedfcdfdfbd3147e0a158ded039}
      \strng{authorfullhash}{0f0b5dedfcdfdfbd3147e0a158ded039}
      \field{sortinit}{J}
      \field{sortinithash}{fce5f8d0bd05e8d93f3dbe21c78897ca}
      \field{extradatescope}{labelyear}
      \field{labeldatesource}{year}
      \field{labelnamesource}{author}
      \field{labeltitlesource}{title}
      \field{journaltitle}{Knowledge-Based Systems}
      \field{title}{Transfer Learning using Computational Intelligence: A Survey}
      \field{volume}{80}
      \field{year}{2015}
    \endentry
    \entry{dl-perspective}{article}{}
      \name{author}{1}{}{%
        {{hash=45b676092622c42db7ffd4a63b913238}{%
           family={Kwangjo\bibnamedelima Kim},
           familyi={K\bibinitperiod\bibinitdelim K\bibinitperiod},
           given={Muhamad\bibnamedelimb Erza\bibnamedelima Aminanto},
           giveni={M\bibinitperiod\bibinitdelim E\bibinitperiod\bibinitdelim A\bibinitperiod}}}%
      }
      \strng{namehash}{45b676092622c42db7ffd4a63b913238}
      \strng{fullhash}{45b676092622c42db7ffd4a63b913238}
      \strng{bibnamehash}{45b676092622c42db7ffd4a63b913238}
      \strng{authorbibnamehash}{45b676092622c42db7ffd4a63b913238}
      \strng{authornamehash}{45b676092622c42db7ffd4a63b913238}
      \strng{authorfullhash}{45b676092622c42db7ffd4a63b913238}
      \field{sortinit}{K}
      \field{sortinithash}{9fd838a31ba64d981e8f44562bd33f89}
      \field{extradatescope}{labelyear}
      \field{labeldatesource}{year}
      \field{labelnamesource}{author}
      \field{labeltitlesource}{title}
      \field{journaltitle}{International Workshop Big Data Information Security}
      \field{title}{Deep Learning in Intrusion Detection Perspective: Overview and Further Challenges}
      \field{year}{2017}
    \endentry
    \entry{internet-stat}{article}{}
      \name{author}{1}{}{%
        {{hash=f87a48871351b84c2d8c427cf7ace9d8}{%
           family={Lin},
           familyi={L\bibinitperiod},
           given={Ying},
           giveni={Y\bibinitperiod}}}%
      }
      \strng{namehash}{f87a48871351b84c2d8c427cf7ace9d8}
      \strng{fullhash}{f87a48871351b84c2d8c427cf7ace9d8}
      \strng{bibnamehash}{f87a48871351b84c2d8c427cf7ace9d8}
      \strng{authorbibnamehash}{f87a48871351b84c2d8c427cf7ace9d8}
      \strng{authornamehash}{f87a48871351b84c2d8c427cf7ace9d8}
      \strng{authorfullhash}{f87a48871351b84c2d8c427cf7ace9d8}
      \field{sortinit}{L}
      \field{sortinithash}{2c7981aaabc885868aba60f0c09ee20f}
      \field{extradatescope}{labelyear}
      \field{labeldatesource}{year}
      \field{labelnamesource}{author}
      \field{labeltitlesource}{title}
      \field{title}{10 Internet Statistics Every Marketer Should Know in 2020}
      \field{urlyear}{2019}
      \field{year}{2019}
      \field{urldateera}{ce}
      \verb{urlraw}
      \verb https://www.oberlo.com/blog/internet-statistics#:~:text=There%20are%20currently%20over%204.33,percent%20of%20the%20global%20population.
      \endverb
      \verb{url}
      \verb https://www.oberlo.com/blog/internet-statistics#:~:text=There%20are%20currently%20over%204.33,percent%20of%20the%20global%20population.
      \endverb
    \endentry
    \entry{dl-ids}{article}{}
      \name{author}{1}{}{%
        {{hash=27d92343dd031f8f7b78034f9e8c60a6}{%
           family={Muhamad\bibnamedelimb Erza\bibnamedelima Aminanto},
           familyi={M\bibinitperiod\bibinitdelim E\bibinitperiod\bibinitdelim A\bibinitperiod},
           given={Kwangjo\bibnamedelima Kim},
           giveni={K\bibinitperiod\bibinitdelim K\bibinitperiod}}}%
      }
      \strng{namehash}{27d92343dd031f8f7b78034f9e8c60a6}
      \strng{fullhash}{27d92343dd031f8f7b78034f9e8c60a6}
      \strng{bibnamehash}{27d92343dd031f8f7b78034f9e8c60a6}
      \strng{authorbibnamehash}{27d92343dd031f8f7b78034f9e8c60a6}
      \strng{authornamehash}{27d92343dd031f8f7b78034f9e8c60a6}
      \strng{authorfullhash}{27d92343dd031f8f7b78034f9e8c60a6}
      \field{sortinit}{M}
      \field{sortinithash}{cfd219b90152c06204fab207bc6c7cab}
      \field{extradatescope}{labelyear}
      \field{labeldatesource}{year}
      \field{labelnamesource}{author}
      \field{labeltitlesource}{title}
      \field{journaltitle}{International Research Conference in Engineering Technology}
      \field{title}{Deep Learning in Intrusion Detection System: An Overview}
      \field{year}{2016}
    \endentry
    \entry{ibm-auto-comp}{book}{}
      \name{author}{1}{}{%
        {{hash=493579d4d2f773e44bed361b3cb807f4}{%
           family={Murch},
           familyi={M\bibinitperiod},
           given={Richard},
           giveni={R\bibinitperiod}}}%
      }
      \list{publisher}{1}{%
        {IBM Press}%
      }
      \strng{namehash}{493579d4d2f773e44bed361b3cb807f4}
      \strng{fullhash}{493579d4d2f773e44bed361b3cb807f4}
      \strng{bibnamehash}{493579d4d2f773e44bed361b3cb807f4}
      \strng{authorbibnamehash}{493579d4d2f773e44bed361b3cb807f4}
      \strng{authornamehash}{493579d4d2f773e44bed361b3cb807f4}
      \strng{authorfullhash}{493579d4d2f773e44bed361b3cb807f4}
      \field{sortinit}{M}
      \field{sortinithash}{cfd219b90152c06204fab207bc6c7cab}
      \field{extradatescope}{labelyear}
      \field{labeldatesource}{year}
      \field{labelnamesource}{author}
      \field{labeltitlesource}{title}
      \field{title}{Autonomic Computing}
      \field{year}{2004}
    \endentry
    \entry{know-route}{article}{}
      \name{author}{1}{}{%
        {{hash=985fc2a17c867cf0eebd556d5d54d210}{%
           family={Nikos\bibnamedelima Manouselis},
           familyi={N\bibinitperiod\bibinitdelim M\bibinitperiod},
           given={Demetrios\bibnamedelima Sampson},
           giveni={D\bibinitperiod\bibinitdelim S\bibinitperiod}}}%
      }
      \strng{namehash}{985fc2a17c867cf0eebd556d5d54d210}
      \strng{fullhash}{985fc2a17c867cf0eebd556d5d54d210}
      \strng{bibnamehash}{985fc2a17c867cf0eebd556d5d54d210}
      \strng{authorbibnamehash}{985fc2a17c867cf0eebd556d5d54d210}
      \strng{authornamehash}{985fc2a17c867cf0eebd556d5d54d210}
      \strng{authorfullhash}{985fc2a17c867cf0eebd556d5d54d210}
      \field{sortinit}{N}
      \field{sortinithash}{f7242c3ed3dc50029fca1be76c497c7c}
      \field{extradatescope}{labelyear}
      \field{labeldatesource}{year}
      \field{labelnamesource}{author}
      \field{labeltitlesource}{title}
      \field{journaltitle}{Proceedings of The Intelligence and Technology in Educational Applications Workshop}
      \field{title}{Dynamic Knowledge Route Selection for Personalized Learning Environments Using Multiple Criteria}
      \field{year}{2002}
    \endentry
    \entry{framework-sal}{article}{}
      \name{author}{1}{}{%
        {{hash=72a256648d83dc39a4af19e2a81bca1d}{%
           family={Rachid\bibnamedelima Benlamri},
           familyi={R\bibinitperiod\bibinitdelim B\bibinitperiod},
           given={Jawad\bibnamedelima Berri},
           giveni={J\bibinitperiod\bibinitdelim B\bibinitperiod}}}%
      }
      \strng{namehash}{72a256648d83dc39a4af19e2a81bca1d}
      \strng{fullhash}{72a256648d83dc39a4af19e2a81bca1d}
      \strng{bibnamehash}{72a256648d83dc39a4af19e2a81bca1d}
      \strng{authorbibnamehash}{72a256648d83dc39a4af19e2a81bca1d}
      \strng{authornamehash}{72a256648d83dc39a4af19e2a81bca1d}
      \strng{authorfullhash}{72a256648d83dc39a4af19e2a81bca1d}
      \field{sortinit}{R}
      \field{sortinithash}{da6b42bd3ab22fee61abed031ee405f7}
      \field{extradatescope}{labelyear}
      \field{labeldatesource}{year}
      \field{labelnamesource}{author}
      \field{labeltitlesource}{title}
      \field{journaltitle}{Education and Information Technologies}
      \field{title}{Learning Objects Based Framework for Self-Adaptive Learning}
      \field{year}{2003}
    \endentry
    \entry{dd-physics}{article}{}
      \name{author}{1}{}{%
        {{hash=e888a3c0aeb200320955b3e05f08248b}{%
           family={Rahul\bibnamedelima Rai},
           familyi={R\bibinitperiod\bibinitdelim R\bibinitperiod},
           given={Chandan\bibnamedelimb K.\bibnamedelimi Sahu},
           giveni={C\bibinitperiod\bibinitdelim K\bibinitperiod\bibinitdelim S\bibinitperiod}}}%
      }
      \strng{namehash}{e888a3c0aeb200320955b3e05f08248b}
      \strng{fullhash}{e888a3c0aeb200320955b3e05f08248b}
      \strng{bibnamehash}{e888a3c0aeb200320955b3e05f08248b}
      \strng{authorbibnamehash}{e888a3c0aeb200320955b3e05f08248b}
      \strng{authornamehash}{e888a3c0aeb200320955b3e05f08248b}
      \strng{authorfullhash}{e888a3c0aeb200320955b3e05f08248b}
      \field{sortinit}{R}
      \field{sortinithash}{da6b42bd3ab22fee61abed031ee405f7}
      \field{extradatescope}{labelyear}
      \field{labeldatesource}{year}
      \field{labelnamesource}{author}
      \field{labeltitlesource}{title}
      \field{journaltitle}{IEEE Access}
      \field{title}{Driven by Data or Derived Through Physics? A Review of Hybrid Physics Guided Machine Learning Techniques With Cyber-Physical Systems (CPS) Focus}
      \field{year}{2020}
    \endentry
    \entry{jade}{article}{}
      \name{author}{1}{}{%
        {{hash=593e1e8bb84a4acaeee901c504553426}{%
           family={Ricardo\bibnamedelimb Azambuja\bibnamedelima Silveira},
           familyi={R\bibinitperiod\bibinitdelim A\bibinitperiod\bibinitdelim S\bibinitperiod},
           given={Rosa\bibnamedelimb Maria\bibnamedelima Vicari},
           giveni={R\bibinitperiod\bibinitdelim M\bibinitperiod\bibinitdelim V\bibinitperiod}}}%
      }
      \strng{namehash}{593e1e8bb84a4acaeee901c504553426}
      \strng{fullhash}{593e1e8bb84a4acaeee901c504553426}
      \strng{bibnamehash}{593e1e8bb84a4acaeee901c504553426}
      \strng{authorbibnamehash}{593e1e8bb84a4acaeee901c504553426}
      \strng{authornamehash}{593e1e8bb84a4acaeee901c504553426}
      \strng{authorfullhash}{593e1e8bb84a4acaeee901c504553426}
      \field{sortinit}{R}
      \field{sortinithash}{da6b42bd3ab22fee61abed031ee405f7}
      \field{extradatescope}{labelyear}
      \field{labeldatesource}{year}
      \field{labelnamesource}{author}
      \field{labeltitlesource}{title}
      \field{journaltitle}{International Conference on Intelligent Tutoring Systems}
      \field{title}{Developing Distributed Intelligent Learning Environment with JADE --- Java Agents for Distance Education Framework}
      \field{year}{2002}
    \endentry
    \entry{transfer-survey}{article}{}
      \name{author}{1}{}{%
        {{hash=9325daeeb3c3b9b2b3adf46c6e16f4da}{%
           family={Sinno\bibnamedelimb Jianlin\bibnamedelima Pan},
           familyi={S\bibinitperiod\bibinitdelim J\bibinitperiod\bibinitdelim P\bibinitperiod},
           given={Qiang\bibnamedelima Yang},
           giveni={Q\bibinitperiod\bibinitdelim Y\bibinitperiod}}}%
      }
      \strng{namehash}{9325daeeb3c3b9b2b3adf46c6e16f4da}
      \strng{fullhash}{9325daeeb3c3b9b2b3adf46c6e16f4da}
      \strng{bibnamehash}{9325daeeb3c3b9b2b3adf46c6e16f4da}
      \strng{authorbibnamehash}{9325daeeb3c3b9b2b3adf46c6e16f4da}
      \strng{authornamehash}{9325daeeb3c3b9b2b3adf46c6e16f4da}
      \strng{authorfullhash}{9325daeeb3c3b9b2b3adf46c6e16f4da}
      \field{sortinit}{S}
      \field{sortinithash}{322b1d5276f2f6c1bccdcd15920dbee6}
      \field{extradatescope}{labelyear}
      \field{labeldatesource}{year}
      \field{labelnamesource}{author}
      \field{labeltitlesource}{title}
      \field{journaltitle}{IEEE Transactions on Knowledge and Data Engineering}
      \field{title}{A Survey on Transfer Learning}
      \field{year}{2009}
    \endentry
    \entry{represent-learning}{article}{}
      \name{author}{1}{}{%
        {{hash=773292b14b06732ef5c417a6dfbc7540}{%
           family={Yoshua\bibnamedelima Bengio},
           familyi={Y\bibinitperiod\bibinitdelim B\bibinitperiod},
           given={Pascal\bibnamedelima Vincent},
           giveni={P\bibinitperiod\bibinitdelim V\bibinitperiod},
           suffix={Aaron\bibnamedelima Courville},
           suffixi={A\bibinitperiod\bibinitdelim C\bibinitperiod}}}%
      }
      \strng{namehash}{773292b14b06732ef5c417a6dfbc7540}
      \strng{fullhash}{773292b14b06732ef5c417a6dfbc7540}
      \strng{bibnamehash}{773292b14b06732ef5c417a6dfbc7540}
      \strng{authorbibnamehash}{773292b14b06732ef5c417a6dfbc7540}
      \strng{authornamehash}{773292b14b06732ef5c417a6dfbc7540}
      \strng{authorfullhash}{773292b14b06732ef5c417a6dfbc7540}
      \field{sortinit}{Y}
      \field{sortinithash}{b8d711a035f7be9840c721c82920477e}
      \field{extradatescope}{labelyear}
      \field{labeldatesource}{year}
      \field{labelnamesource}{author}
      \field{labeltitlesource}{title}
      \field{abstract}{The success of machine learning algorithms generally depends on data representation, and we hypothesize that this is because different representations can entangle and hide more or less the different explanatory factors of variation behind the data. Although specific domain knowledge can be used to help design representations, learning with generic priors can also be used, and the quest for AI is motivating the design of more powerful representation-learning algorithms implementing such priors. This paper reviews recent work in the area of unsupervised feature learning and deep learning, covering advances in probabilistic models, auto-encoders, manifold learning, and deep networks. This motivates longer-term unanswered questions about the appropriate objectives for learning good representations, for computing representations (i.e., inference), and the geometrical connections between representation learning, density estimation and manifold lea}
      \field{title}{Representation Learning: A Review and New Perspectives}
      \field{year}{2014}
      \keyw{Deep learning,representation learning,feature learning,unsupervised learning,Boltzmann Machine,autoencoder,neural nets}
    \endentry
    \entry{ts-class}{article}{}
      \name{author}{1}{}{%
        {{hash=875a8bfb5b05006a2054722fc2afeddb}{%
           family={Zhiguang\bibnamedelima Wang},
           familyi={Z\bibinitperiod\bibinitdelim W\bibinitperiod},
           given={Tim\bibnamedelima Oates},
           giveni={T\bibinitperiod\bibinitdelim O\bibinitperiod},
           suffix={Weizhong\bibnamedelima Yan},
           suffixi={W\bibinitperiod\bibinitdelim Y\bibinitperiod}}}%
      }
      \strng{namehash}{875a8bfb5b05006a2054722fc2afeddb}
      \strng{fullhash}{875a8bfb5b05006a2054722fc2afeddb}
      \strng{bibnamehash}{875a8bfb5b05006a2054722fc2afeddb}
      \strng{authorbibnamehash}{875a8bfb5b05006a2054722fc2afeddb}
      \strng{authornamehash}{875a8bfb5b05006a2054722fc2afeddb}
      \strng{authorfullhash}{875a8bfb5b05006a2054722fc2afeddb}
      \field{sortinit}{Z}
      \field{sortinithash}{156173bd08b075d7295bc3e0f4735a04}
      \field{extradatescope}{labelyear}
      \field{labeldatesource}{year}
      \field{labelnamesource}{author}
      \field{labeltitlesource}{title}
      \field{journaltitle}{International Joint Conference on Neural Networks}
      \field{title}{Time Series Classification from Scratch with Deep Neural Networks: A Strong Baseline}
      \field{year}{2017}
    \endentry
  \enddatalist
\endrefsection
\endinput

