\relax 
\providecommand\hyper@newdestlabel[2]{}
\providecommand\HyperFirstAtBeginDocument{\AtBeginDocument}
\HyperFirstAtBeginDocument{\ifx\hyper@anchor\@undefined
\global\let\oldcontentsline\contentsline
\gdef\contentsline#1#2#3#4{\oldcontentsline{#1}{#2}{#3}}
\global\let\oldnewlabel\newlabel
\gdef\newlabel#1#2{\newlabelxx{#1}#2}
\gdef\newlabelxx#1#2#3#4#5#6{\oldnewlabel{#1}{{#2}{#3}}}
\AtEndDocument{\ifx\hyper@anchor\@undefined
\let\contentsline\oldcontentsline
\let\newlabel\oldnewlabel
\fi}
\fi}
\global\let\hyper@last\relax 
\gdef\HyperFirstAtBeginDocument#1{#1}
\providecommand\HyField@AuxAddToFields[1]{}
\providecommand\HyField@AuxAddToCoFields[2]{}
\abx@aux@refcontext{nyt/global//global/global}
\abx@aux@cite{ooa-tutor}
\abx@aux@segm{0}{0}{ooa-tutor}
\abx@aux@segm{0}{0}{ooa-tutor}
\abx@aux@cite{ibm-auto-comp}
\abx@aux@segm{0}{0}{ibm-auto-comp}
\abx@aux@segm{0}{0}{ibm-auto-comp}
\abx@aux@segm{0}{0}{ibm-auto-comp}
\abx@aux@segm{0}{0}{ibm-auto-comp}
\abx@aux@cite{represent-learning}
\abx@aux@segm{0}{0}{represent-learning}
\abx@aux@segm{0}{0}{represent-learning}
\abx@aux@cite{transfer-survey}
\abx@aux@segm{0}{0}{transfer-survey}
\abx@aux@segm{0}{0}{transfer-survey}
\abx@aux@cite{transfer-int}
\abx@aux@segm{0}{0}{transfer-int}
\abx@aux@segm{0}{0}{transfer-int}
\@writefile{toc}{\boolfalse {citerequest}\boolfalse {citetracker}\boolfalse {pagetracker}\boolfalse {backtracker}\relax }
\@writefile{lof}{\boolfalse {citerequest}\boolfalse {citetracker}\boolfalse {pagetracker}\boolfalse {backtracker}\relax }
\@writefile{lot}{\boolfalse {citerequest}\boolfalse {citetracker}\boolfalse {pagetracker}\boolfalse {backtracker}\relax }
\babel@aux{english}{}
\@writefile{toc}{\defcounter {refsection}{0}\relax }\@writefile{toc}{\contentsline {section}{\numberline {1}Research Log}{1}{section.1}\protected@file@percent }
\@writefile{toc}{\defcounter {refsection}{0}\relax }\@writefile{toc}{\contentsline {subsection}{\numberline {1.1}Background}{1}{subsection.1.1}\protected@file@percent }
\abx@aux@cite{dl-approaches-survey}
\abx@aux@segm{0}{0}{dl-approaches-survey}
\abx@aux@segm{0}{0}{dl-approaches-survey}
\abx@aux@cite{dl-perspective}
\abx@aux@segm{0}{0}{dl-perspective}
\abx@aux@segm{0}{0}{dl-perspective}
\abx@aux@segm{0}{0}{dl-approaches-survey}
\abx@aux@segm{0}{0}{dl-approaches-survey}
\@writefile{lof}{\defcounter {refsection}{0}\relax }\@writefile{lof}{\contentsline {figure}{\numberline {1}{\ignorespaces MAPE-K Feedback Loop.\relax }}{2}{figure.caption.1}\protected@file@percent }
\providecommand*\caption@xref[2]{\@setref\relax\@undefined{#1}}
\newlabel{fig:mape-k}{{1}{2}{MAPE-K Feedback Loop.\relax }{figure.caption.1}{}}
\@writefile{toc}{\defcounter {refsection}{0}\relax }\@writefile{toc}{\contentsline {subsection}{\numberline {1.2}Papers}{2}{subsection.1.2}\protected@file@percent }
\abx@aux@cite{dl-ids}
\abx@aux@segm{0}{0}{dl-ids}
\abx@aux@segm{0}{0}{dl-ids}
\abx@aux@segm{0}{0}{dl-approaches-survey}
\abx@aux@segm{0}{0}{dl-approaches-survey}
\abx@aux@cite{ts-class}
\abx@aux@segm{0}{0}{ts-class}
\abx@aux@segm{0}{0}{ts-class}
\abx@aux@cite{dd-physics}
\abx@aux@segm{0}{0}{dd-physics}
\abx@aux@segm{0}{0}{dd-physics}
\abx@aux@cite{learning2learn}
\abx@aux@segm{0}{0}{learning2learn}
\abx@aux@segm{0}{0}{learning2learn}
\abx@aux@segm{0}{0}{ooa-tutor}
\abx@aux@segm{0}{0}{ooa-tutor}
\abx@aux@cite{plan-tutor}
\abx@aux@segm{0}{0}{plan-tutor}
\abx@aux@segm{0}{0}{plan-tutor}
\abx@aux@cite{gia}
\abx@aux@segm{0}{0}{gia}
\abx@aux@segm{0}{0}{gia}
\abx@aux@cite{framework-sal}
\abx@aux@segm{0}{0}{framework-sal}
\abx@aux@segm{0}{0}{framework-sal}
\abx@aux@segm{0}{0}{gia}
\abx@aux@segm{0}{0}{gia}
\abx@aux@cite{jade}
\abx@aux@segm{0}{0}{jade}
\abx@aux@segm{0}{0}{jade}
\abx@aux@segm{0}{0}{gia}
\abx@aux@segm{0}{0}{gia}
\@writefile{toc}{\defcounter {refsection}{0}\relax }\@writefile{toc}{\contentsline {subsection}{\numberline {1.3}Synthesis}{4}{subsection.1.3}\protected@file@percent }
\abx@aux@cite{internet-stat}
\abx@aux@segm{0}{0}{internet-stat}
\abx@aux@segm{0}{0}{internet-stat}
\abx@aux@cite{internet-gaps}
\abx@aux@segm{0}{0}{internet-gaps}
\abx@aux@segm{0}{0}{internet-gaps}
\@writefile{toc}{\defcounter {refsection}{0}\relax }\@writefile{toc}{\contentsline {subsection}{\numberline {1.4}Reflection}{5}{subsection.1.4}\protected@file@percent }
\@writefile{toc}{\defcounter {refsection}{0}\relax }\@writefile{toc}{\contentsline {subsection}{\numberline {1.5}Planning}{5}{subsection.1.5}\protected@file@percent }
\@writefile{toc}{\defcounter {refsection}{0}\relax }\@writefile{toc}{\contentsline {section}{\numberline {2}Activity}{5}{section.2}\protected@file@percent }
\abx@aux@segm{0}{0}{internet-gaps}
\abx@aux@segm{0}{0}{internet-gaps}
\abx@aux@cite{info-divide}
\abx@aux@segm{0}{0}{info-divide}
\abx@aux@segm{0}{0}{info-divide}
\@writefile{toc}{\defcounter {refsection}{0}\relax }\@writefile{toc}{\contentsline {section}{\numberline {3}References}{7}{section.3}\protected@file@percent }
\abx@aux@page{51}{7}
\abx@aux@page{52}{7}
\abx@aux@page{53}{7}
\abx@aux@page{54}{7}
\abx@aux@page{55}{7}
\abx@aux@page{56}{7}
\abx@aux@page{57}{7}
\abx@aux@page{58}{7}
\abx@aux@page{59}{7}
\abx@aux@page{60}{7}
\abx@aux@refcontextdefaultsdone
\abx@aux@defaultrefcontext{0}{learning2learn}{nyt/global//global/global}
\abx@aux@defaultrefcontext{0}{dl-approaches-survey}{nyt/global//global/global}
\abx@aux@defaultrefcontext{0}{internet-gaps}{nyt/global//global/global}
\abx@aux@defaultrefcontext{0}{gia}{nyt/global//global/global}
\abx@aux@defaultrefcontext{0}{plan-tutor}{nyt/global//global/global}
\abx@aux@defaultrefcontext{0}{info-divide}{nyt/global//global/global}
\abx@aux@defaultrefcontext{0}{ooa-tutor}{nyt/global//global/global}
\abx@aux@defaultrefcontext{0}{transfer-int}{nyt/global//global/global}
\abx@aux@defaultrefcontext{0}{dl-perspective}{nyt/global//global/global}
\abx@aux@defaultrefcontext{0}{internet-stat}{nyt/global//global/global}
\abx@aux@defaultrefcontext{0}{dl-ids}{nyt/global//global/global}
\abx@aux@defaultrefcontext{0}{ibm-auto-comp}{nyt/global//global/global}
\abx@aux@defaultrefcontext{0}{framework-sal}{nyt/global//global/global}
\abx@aux@defaultrefcontext{0}{dd-physics}{nyt/global//global/global}
\abx@aux@defaultrefcontext{0}{jade}{nyt/global//global/global}
\abx@aux@defaultrefcontext{0}{transfer-survey}{nyt/global//global/global}
\abx@aux@defaultrefcontext{0}{represent-learning}{nyt/global//global/global}
\abx@aux@defaultrefcontext{0}{ts-class}{nyt/global//global/global}
\abx@aux@page{61}{8}
\abx@aux@page{62}{8}
\abx@aux@page{63}{8}
\abx@aux@page{64}{8}
\abx@aux@page{65}{8}
\abx@aux@page{66}{8}
\abx@aux@page{67}{8}
\abx@aux@page{68}{8}
