\relax 
\providecommand\hyper@newdestlabel[2]{}
\providecommand\HyperFirstAtBeginDocument{\AtBeginDocument}
\HyperFirstAtBeginDocument{\ifx\hyper@anchor\@undefined
\global\let\oldcontentsline\contentsline
\gdef\contentsline#1#2#3#4{\oldcontentsline{#1}{#2}{#3}}
\global\let\oldnewlabel\newlabel
\gdef\newlabel#1#2{\newlabelxx{#1}#2}
\gdef\newlabelxx#1#2#3#4#5#6{\oldnewlabel{#1}{{#2}{#3}}}
\AtEndDocument{\ifx\hyper@anchor\@undefined
\let\contentsline\oldcontentsline
\let\newlabel\oldnewlabel
\fi}
\fi}
\global\let\hyper@last\relax 
\gdef\HyperFirstAtBeginDocument#1{#1}
\providecommand\HyField@AuxAddToFields[1]{}
\providecommand\HyField@AuxAddToCoFields[2]{}
\abx@aux@refcontext{nyt/global//global/global}
\abx@aux@cite{ibm-auto-comp}
\abx@aux@segm{0}{0}{ibm-auto-comp}
\abx@aux@segm{0}{0}{ibm-auto-comp}
\abx@aux@cite{auto-comp-pdi}
\abx@aux@segm{0}{0}{auto-comp-pdi}
\abx@aux@segm{0}{0}{auto-comp-pdi}
\abx@aux@cite{represent-learning}
\abx@aux@segm{0}{0}{represent-learning}
\abx@aux@segm{0}{0}{represent-learning}
\abx@aux@cite{transfer-survey}
\abx@aux@segm{0}{0}{transfer-survey}
\abx@aux@segm{0}{0}{transfer-survey}
\abx@aux@cite{transfer-int}
\abx@aux@segm{0}{0}{transfer-int}
\abx@aux@segm{0}{0}{transfer-int}
\@writefile{toc}{\boolfalse {citerequest}\boolfalse {citetracker}\boolfalse {pagetracker}\boolfalse {backtracker}\relax }
\@writefile{lof}{\boolfalse {citerequest}\boolfalse {citetracker}\boolfalse {pagetracker}\boolfalse {backtracker}\relax }
\@writefile{lot}{\boolfalse {citerequest}\boolfalse {citetracker}\boolfalse {pagetracker}\boolfalse {backtracker}\relax }
\babel@aux{english}{}
\@writefile{toc}{\defcounter {refsection}{0}\relax }\@writefile{toc}{\contentsline {section}{\numberline {1}Research Log}{1}{section.1}\protected@file@percent }
\@writefile{toc}{\defcounter {refsection}{0}\relax }\@writefile{toc}{\contentsline {subsection}{\numberline {1.1}Background}{1}{subsection.1.1}\protected@file@percent }
\abx@aux@segm{0}{0}{represent-learning}
\abx@aux@segm{0}{0}{represent-learning}
\abx@aux@segm{0}{0}{transfer-survey}
\abx@aux@segm{0}{0}{transfer-survey}
\abx@aux@segm{0}{0}{transfer-int}
\abx@aux@segm{0}{0}{transfer-int}
\abx@aux@segm{0}{0}{ibm-auto-comp}
\abx@aux@segm{0}{0}{ibm-auto-comp}
\abx@aux@segm{0}{0}{auto-comp-pdi}
\abx@aux@segm{0}{0}{auto-comp-pdi}
\abx@aux@cite{deep-learning}
\abx@aux@segm{0}{0}{deep-learning}
\abx@aux@segm{0}{0}{deep-learning}
\abx@aux@cite{deep-arch-ai}
\abx@aux@segm{0}{0}{deep-arch-ai}
\abx@aux@segm{0}{0}{deep-arch-ai}
\abx@aux@cite{physics-ml}
\abx@aux@segm{0}{0}{physics-ml}
\abx@aux@segm{0}{0}{physics-ml}
\abx@aux@cite{metacog}
\abx@aux@segm{0}{0}{metacog}
\abx@aux@segm{0}{0}{metacog}
\@writefile{lof}{\defcounter {refsection}{0}\relax }\@writefile{lof}{\contentsline {figure}{\numberline {1}{\ignorespaces MAPE-K Feedback Loop.\relax }}{2}{figure.caption.1}\protected@file@percent }
\providecommand*\caption@xref[2]{\@setref\relax\@undefined{#1}}
\newlabel{fig:mape-k}{{1}{2}{MAPE-K Feedback Loop.\relax }{figure.caption.1}{}}
\@writefile{toc}{\defcounter {refsection}{0}\relax }\@writefile{toc}{\contentsline {subsection}{\numberline {1.2}Papers}{2}{subsection.1.2}\protected@file@percent }
\abx@aux@cite{itag}
\abx@aux@segm{0}{0}{itag}
\abx@aux@segm{0}{0}{itag}
\abx@aux@cite{cognitive-syseng}
\abx@aux@segm{0}{0}{cognitive-syseng}
\abx@aux@segm{0}{0}{cognitive-syseng}
\abx@aux@cite{meta-learn}
\abx@aux@segm{0}{0}{meta-learn}
\abx@aux@segm{0}{0}{meta-learn}
\abx@aux@segm{0}{0}{deep-learning}
\abx@aux@segm{0}{0}{deep-learning}
\abx@aux@segm{0}{0}{represent-learning}
\abx@aux@segm{0}{0}{represent-learning}
\abx@aux@segm{0}{0}{transfer-survey}
\abx@aux@segm{0}{0}{transfer-survey}
\abx@aux@segm{0}{0}{transfer-int}
\abx@aux@segm{0}{0}{transfer-int}
\abx@aux@segm{0}{0}{physics-ml}
\abx@aux@segm{0}{0}{physics-ml}
\abx@aux@segm{0}{0}{meta-learn}
\abx@aux@segm{0}{0}{meta-learn}
\abx@aux@segm{0}{0}{metacog}
\abx@aux@segm{0}{0}{metacog}
\abx@aux@segm{0}{0}{itag}
\abx@aux@segm{0}{0}{itag}
\abx@aux@segm{0}{0}{cognitive-syseng}
\abx@aux@segm{0}{0}{cognitive-syseng}
\abx@aux@segm{0}{0}{itag}
\abx@aux@segm{0}{0}{itag}
\@writefile{toc}{\defcounter {refsection}{0}\relax }\@writefile{toc}{\contentsline {subsection}{\numberline {1.3}Synthesis}{3}{subsection.1.3}\protected@file@percent }
\abx@aux@segm{0}{0}{represent-learning}
\abx@aux@segm{0}{0}{represent-learning}
\@writefile{toc}{\defcounter {refsection}{0}\relax }\@writefile{toc}{\contentsline {subsection}{\numberline {1.4}Reflection}{4}{subsection.1.4}\protected@file@percent }
\@writefile{toc}{\defcounter {refsection}{0}\relax }\@writefile{toc}{\contentsline {subsection}{\numberline {1.5}Planning}{4}{subsection.1.5}\protected@file@percent }
\@writefile{toc}{\defcounter {refsection}{0}\relax }\@writefile{toc}{\contentsline {section}{\numberline {2}Activity}{4}{section.2}\protected@file@percent }
\@writefile{toc}{\defcounter {refsection}{0}\relax }\@writefile{toc}{\contentsline {subsection}{\numberline {2.1}(\citeauthor {represent-learning}, \citeyear {represent-learning}).~Representation Learning: A Review and New Perspectives}{4}{subsection.2.1}\protected@file@percent }
\abx@aux@cite{auto-learn-model}
\abx@aux@segm{0}{0}{auto-learn-model}
\abx@aux@segm{0}{0}{auto-learn-model}
\abx@aux@segm{0}{0}{physics-ml}
\abx@aux@segm{0}{0}{physics-ml}
\@writefile{toc}{\defcounter {refsection}{0}\relax }\@writefile{toc}{\contentsline {subsection}{\numberline {2.2}(\citeauthor {auto-learn-model}, \citeyear {auto-learn-model}).~Autonomic Learning Model and Algorithm Based on DFL}{5}{subsection.2.2}\protected@file@percent }
\@writefile{toc}{\defcounter {refsection}{0}\relax }\@writefile{toc}{\contentsline {subsection}{\numberline {2.3}(\citeauthor {physics-ml}, \citeyear {physics-ml}).~Physics-Guided Machine Learning for Scientific Discovery: An Application in Simulating Lake Temperature Profiles}{5}{subsection.2.3}\protected@file@percent }
\abx@aux@segm{0}{0}{metacog}
\abx@aux@segm{0}{0}{metacog}
\abx@aux@segm{0}{0}{metacog}
\abx@aux@segm{0}{0}{metacog}
\abx@aux@segm{0}{0}{auto-comp-pdi}
\abx@aux@segm{0}{0}{auto-comp-pdi}
\@writefile{toc}{\defcounter {refsection}{0}\relax }\@writefile{toc}{\contentsline {subsection}{\numberline {2.4}(\citeauthor {metacog}, \citeyear {metacog}).~Metacognitive Knowledge Monitoring and Self-Regulated Learning: Academic Success and Reflections on Learning}{6}{subsection.2.4}\protected@file@percent }
\@writefile{toc}{\defcounter {refsection}{0}\relax }\@writefile{toc}{\contentsline {subsection}{\numberline {2.5}(\citeauthor {auto-comp-pdi}, \citeyear {auto-comp-pdi}).~Autonomic Computing: Principles, Design, and Implementation}{6}{subsection.2.5}\protected@file@percent }
\@writefile{toc}{\defcounter {refsection}{0}\relax }\@writefile{toc}{\contentsline {section}{\numberline {3}References}{7}{section.3}\protected@file@percent }
\abx@aux@page{67}{7}
\abx@aux@page{68}{7}
\abx@aux@page{69}{7}
\abx@aux@page{70}{7}
\abx@aux@page{71}{7}
\abx@aux@page{72}{7}
\abx@aux@page{73}{7}
\abx@aux@page{74}{7}
\abx@aux@page{75}{7}
\abx@aux@page{76}{7}
\abx@aux@refcontextdefaultsdone
\abx@aux@defaultrefcontext{0}{deep-arch-ai}{nyt/global//global/global}
\abx@aux@defaultrefcontext{0}{meta-learn}{nyt/global//global/global}
\abx@aux@defaultrefcontext{0}{itag}{nyt/global//global/global}
\abx@aux@defaultrefcontext{0}{cognitive-syseng}{nyt/global//global/global}
\abx@aux@defaultrefcontext{0}{deep-learning}{nyt/global//global/global}
\abx@aux@defaultrefcontext{0}{transfer-int}{nyt/global//global/global}
\abx@aux@defaultrefcontext{0}{auto-learn-model}{nyt/global//global/global}
\abx@aux@defaultrefcontext{0}{ibm-auto-comp}{nyt/global//global/global}
\abx@aux@defaultrefcontext{0}{auto-comp-pdi}{nyt/global//global/global}
\abx@aux@defaultrefcontext{0}{metacog}{nyt/global//global/global}
\abx@aux@defaultrefcontext{0}{transfer-survey}{nyt/global//global/global}
\abx@aux@defaultrefcontext{0}{physics-ml}{nyt/global//global/global}
\abx@aux@defaultrefcontext{0}{represent-learning}{nyt/global//global/global}
\abx@aux@page{77}{8}
\abx@aux@page{78}{8}
\abx@aux@page{79}{8}
