\BOOKMARK [1][-]{section.1}{Research Log}{}% 1
\BOOKMARK [2][-]{subsection.1.1}{Background}{section.1}% 2
\BOOKMARK [2][-]{subsection.1.2}{Papers}{section.1}% 3
\BOOKMARK [2][-]{subsection.1.3}{Synthesis}{section.1}% 4
\BOOKMARK [2][-]{subsection.1.4}{Reflection}{section.1}% 5
\BOOKMARK [2][-]{subsection.1.5}{Planning}{section.1}% 6
\BOOKMARK [1][-]{section.2}{Activity}{}% 7
\BOOKMARK [2][-]{subsection.2.1}{Problem Statement}{section.2}% 8
\BOOKMARK [3][-]{subsubsection.2.1.1}{Background}{subsection.2.1}% 9
\BOOKMARK [3][-]{subsubsection.2.1.2}{Working Memory - Frames}{subsection.2.1}% 10
\BOOKMARK [3][-]{subsubsection.2.1.3}{Long Term Memory - Procedural, Semantic, Episodic}{subsection.2.1}% 11
\BOOKMARK [3][-]{subsubsection.2.1.4}{Problem - The Lack of Dynamic \046 Adaptable Data in Intelligent Tutoring Systems }{subsection.2.1}% 12
\BOOKMARK [3][-]{subsubsection.2.1.5}{Closing Thoughts:}{subsection.2.1}% 13
\BOOKMARK [2][-]{subsection.2.2}{Research Questions}{section.2}% 14
\BOOKMARK [1][-]{section.3}{References}{}% 15
